2021-12-26 15:49:09,938 INFO org.hibernate.validator.internal.util.Version:21 [background-preinit] HV000001: Hibernate Validator 6.1.7.Final
2021-12-26 15:49:09,966 INFO org.springframework.boot.StartupInfoLogger:55 [main] Starting ResidenceCmsApplication using Java 1.8.0_191 on LAPTOP-VJRTFRM5 with PID 5920 (J:\Hoc-tap\CNPM\resident-cms-backend\target\classes started by vutie in J:\Hoc-tap\CNPM\resident-cms-backend)
2021-12-26 15:49:09,967 INFO org.springframework.boot.SpringApplication:675 [main] No active profile set, falling back to default profiles: default
2021-12-26 15:49:10,195 INFO org.springframework.boot.logging.DeferredLog:255 [main] For additional web related logging consider setting the 'logging.level.web' property to 'DEBUG'
2021-12-26 15:49:14,156 INFO org.springframework.data.repository.config.RepositoryConfigurationDelegate:250 [main] Multiple Spring Data modules found, entering strict repository configuration mode!
2021-12-26 15:49:14,158 INFO org.springframework.data.repository.config.RepositoryConfigurationDelegate:128 [main] Bootstrapping Spring Data JDBC repositories in DEFAULT mode.
2021-12-26 15:49:14,273 INFO org.springframework.data.repository.config.RepositoryConfigurationExtensionSupport:349 [main] Spring Data JDBC - Could not safely identify store assignment for repository candidate interface com.example.residencecms.sys.repository.AccountRepo. If you want this repository to be a JDBC repository, consider annotating your entities with one of these annotations: org.springframework.data.relational.core.mapping.Table.
2021-12-26 15:49:14,275 INFO org.springframework.data.repository.config.RepositoryConfigurationDelegate:188 [main] Finished Spring Data repository scanning in 110 ms. Found 0 JDBC repository interfaces.
2021-12-26 15:49:14,291 INFO org.springframework.data.repository.config.RepositoryConfigurationDelegate:250 [main] Multiple Spring Data modules found, entering strict repository configuration mode!
2021-12-26 15:49:14,292 INFO org.springframework.data.repository.config.RepositoryConfigurationDelegate:128 [main] Bootstrapping Spring Data JPA repositories in DEFAULT mode.
2021-12-26 15:49:14,353 INFO org.springframework.data.repository.config.RepositoryConfigurationDelegate:188 [main] Finished Spring Data repository scanning in 52 ms. Found 1 JPA repository interfaces.
2021-12-26 15:49:14,954 INFO org.eclipse.jetty.util.log.Log:169 [main] Logging initialized @12868ms to org.eclipse.jetty.util.log.Slf4jLog
2021-12-26 15:49:15,119 INFO org.springframework.boot.web.embedded.jetty.JettyServletWebServerFactory:151 [main] Server initialized with port: 10901
2021-12-26 15:49:15,124 INFO org.eclipse.jetty.server.Server:375 [main] jetty-9.4.39.v20210325; built: 2021-03-25T14:42:11.471Z; git: 9fc7ca5a922f2a37b84ec9dbc26a5168cee7e667; jvm 1.8.0_191-b12
2021-12-26 15:49:15,167 INFO org.eclipse.jetty.server.handler.ContextHandler$Context:2363 [main] Initializing Spring embedded WebApplicationContext
2021-12-26 15:49:15,168 INFO org.springframework.boot.web.servlet.context.ServletWebServerApplicationContext:289 [main] Root WebApplicationContext: initialization completed in 4971 ms
2021-12-26 15:49:15,695 INFO org.eclipse.jetty.server.session.DefaultSessionIdManager:334 [main] DefaultSessionIdManager workerName=node0
2021-12-26 15:49:15,695 INFO org.eclipse.jetty.server.session.DefaultSessionIdManager:339 [main] No SessionScavenger set, using defaults
2021-12-26 15:49:15,697 INFO org.eclipse.jetty.server.session.HouseKeeper:132 [main] node0 Scavenging every 660000ms
2021-12-26 15:49:15,710 INFO org.eclipse.jetty.server.handler.ContextHandler:916 [main] Started o.s.b.w.e.j.JettyEmbeddedWebAppContext@4ba380c7{application,/api,[file:///C:/Users/vutie/AppData/Local/Temp/jetty-docbase.10901.4523249289538439602/],AVAILABLE}
2021-12-26 15:49:15,712 INFO org.eclipse.jetty.server.Server:415 [main] Started @13626ms
2021-12-26 15:49:16,162 INFO org.hibernate.jpa.internal.util.LogHelper:31 [main] HHH000204: Processing PersistenceUnitInfo [name: default]
2021-12-26 15:49:16,349 INFO org.hibernate.Version:44 [main] HHH000412: Hibernate ORM core version 5.4.30.Final
2021-12-26 15:49:17,254 INFO org.hibernate.annotations.common.reflection.java.JavaReflectionManager:56 [main] HCANN000001: Hibernate Commons Annotations {5.1.2.Final}
2021-12-26 15:49:17,429 INFO com.zaxxer.hikari.HikariDataSource:110 [main] HikariPool-1 - Starting...
2021-12-26 15:49:21,139 INFO com.zaxxer.hikari.HikariDataSource:123 [main] HikariPool-1 - Start completed.
2021-12-26 15:49:21,159 INFO org.hibernate.dialect.Dialect:175 [main] HHH000400: Using dialect: org.hibernate.dialect.Oracle12cDialect
2021-12-26 15:50:03,490 INFO org.hibernate.engine.transaction.jta.platform.internal.JtaPlatformInitiator:52 [main] HHH000490: Using JtaPlatform implementation: [org.hibernate.engine.transaction.jta.platform.internal.NoJtaPlatform]
2021-12-26 15:50:03,509 INFO org.springframework.orm.jpa.AbstractEntityManagerFactoryBean:437 [main] Initialized JPA EntityManagerFactory for persistence unit 'default'
2021-12-26 15:50:04,225 INFO org.ehcache.core.EhcacheManager:288 [main] Cache 'spamManager' created in EhcacheManager.
2021-12-26 15:50:13,064 WARN org.glassfish.jersey.internal.inject.Providers:497 [main] A provider sun.net.httpserver.AuthFilter registered in SERVER runtime does not implement any provider interfaces applicable in the SERVER runtime. Due to constraint configuration problems the provider sun.net.httpserver.AuthFilter will be ignored. 
2021-12-26 15:50:13,344 INFO org.eclipse.jetty.server.AbstractConnector:331 [main] Started ServerConnector@41aaedaa{HTTP/1.1, (http/1.1)}{0.0.0.0:10901}
2021-12-26 15:50:13,346 INFO org.springframework.boot.web.embedded.jetty.JettyWebServer:185 [main] Jetty started on port(s) 10901 (http/1.1) with context path '/api'
2021-12-26 15:50:13,361 INFO org.springframework.boot.StartupInfoLogger:61 [main] Started ResidenceCmsApplication in 64.92 seconds (JVM running for 71.275)
2021-12-26 15:50:26,995 INFO com.example.residencecms.config.filter.CustomLoggingRequestFilter:64 [qtp777190206-38] HTTP REQUEST ==> RequestId: e75cfdc1-e846-416d-8811-7e910493e0ba - Remote IP: [0:0:0:0:0:0:0:1] - Path: account/login - Header: {Accept=[*/*], User-Agent=[PostmanRuntime/7.28.4], Connection=[keep-alive], Postman-Token=[624de5e3-cbc7-4bf3-b45a-355c5af326a2], Host=[localhost:10901], Accept-Encoding=[gzip, deflate, br], Content-Length=[56], Content-Type=[application/json]} - QueryString: null - Entity: {
    "username":"admin",
    "password":"123@123a"
}

2021-12-26 15:50:30,208 ERROR com.example.residencecms.exception.mapper.GenericExceptionMapper:25 [qtp777190206-38] requestId: e75cfdc1-e846-416d-8811-7e910493e0ba, [GENERIC EXCEPTION] ==> null
java.lang.NullPointerException: null
	at com.example.residencecms.sys.service.impl.AccountServiceImpl.loginAccount(AccountServiceImpl.java:61)
	at com.example.residencecms.sys.service.impl.AccountServiceImpl$$FastClassBySpringCGLIB$$634b0d42.invoke(<generated>)
	at org.springframework.cglib.proxy.MethodProxy.invoke(MethodProxy.java:218)
	at org.springframework.aop.framework.CglibAopProxy$CglibMethodInvocation.invokeJoinpoint(CglibAopProxy.java:779)
	at org.springframework.aop.framework.ReflectiveMethodInvocation.proceed(ReflectiveMethodInvocation.java:163)
	at org.springframework.aop.framework.CglibAopProxy$CglibMethodInvocation.proceed(CglibAopProxy.java:750)
	at org.springframework.transaction.interceptor.TransactionInterceptor$1.proceedWithInvocation(TransactionInterceptor.java:123)
	at org.springframework.transaction.interceptor.TransactionAspectSupport.invokeWithinTransaction(TransactionAspectSupport.java:388)
	at org.springframework.transaction.interceptor.TransactionInterceptor.invoke(TransactionInterceptor.java:119)
	at org.springframework.aop.framework.ReflectiveMethodInvocation.proceed(ReflectiveMethodInvocation.java:186)
	at org.springframework.aop.framework.CglibAopProxy$CglibMethodInvocation.proceed(CglibAopProxy.java:750)
	at org.springframework.aop.framework.CglibAopProxy$DynamicAdvisedInterceptor.intercept(CglibAopProxy.java:692)
	at com.example.residencecms.sys.service.impl.AccountServiceImpl$$EnhancerBySpringCGLIB$$c6bdf11e.loginAccount(<generated>)
	at com.example.residencecms.sys.controller.AccountController.loginAccount(AccountController.java:46)
	at sun.reflect.NativeMethodAccessorImpl.invoke0(Native Method)
	at sun.reflect.NativeMethodAccessorImpl.invoke(NativeMethodAccessorImpl.java:62)
	at sun.reflect.DelegatingMethodAccessorImpl.invoke(DelegatingMethodAccessorImpl.java:43)
	at java.lang.reflect.Method.invoke(Method.java:498)
	at org.glassfish.jersey.server.model.internal.ResourceMethodInvocationHandlerFactory.lambda$static$0(ResourceMethodInvocationHandlerFactory.java:52)
	at org.glassfish.jersey.server.model.internal.AbstractJavaResourceMethodDispatcher$1.run(AbstractJavaResourceMethodDispatcher.java:124)
	at org.glassfish.jersey.server.model.internal.AbstractJavaResourceMethodDispatcher.invoke(AbstractJavaResourceMethodDispatcher.java:167)
	at org.glassfish.jersey.server.model.internal.JavaResourceMethodDispatcherProvider$ResponseOutInvoker.doDispatch(JavaResourceMethodDispatcherProvider.java:176)
	at org.glassfish.jersey.server.model.internal.AbstractJavaResourceMethodDispatcher.dispatch(AbstractJavaResourceMethodDispatcher.java:79)
	at org.glassfish.jersey.server.model.ResourceMethodInvoker.invoke(ResourceMethodInvoker.java:469)
	at org.glassfish.jersey.server.model.ResourceMethodInvoker.apply(ResourceMethodInvoker.java:391)
	at org.glassfish.jersey.server.model.ResourceMethodInvoker.apply(ResourceMethodInvoker.java:80)
	at org.glassfish.jersey.server.ServerRuntime$1.run(ServerRuntime.java:255)
	at org.glassfish.jersey.internal.Errors$1.call(Errors.java:248)
	at org.glassfish.jersey.internal.Errors$1.call(Errors.java:244)
	at org.glassfish.jersey.internal.Errors.process(Errors.java:292)
	at org.glassfish.jersey.internal.Errors.process(Errors.java:274)
	at org.glassfish.jersey.internal.Errors.process(Errors.java:244)
	at org.glassfish.jersey.process.internal.RequestScope.runInScope(RequestScope.java:265)
	at org.glassfish.jersey.server.ServerRuntime.process(ServerRuntime.java:234)
	at org.glassfish.jersey.server.ApplicationHandler.handle(ApplicationHandler.java:680)
	at org.glassfish.jersey.servlet.WebComponent.serviceImpl(WebComponent.java:394)
	at org.glassfish.jersey.servlet.WebComponent.service(WebComponent.java:346)
	at org.glassfish.jersey.servlet.ServletContainer.service(ServletContainer.java:366)
	at org.glassfish.jersey.servlet.ServletContainer.service(ServletContainer.java:319)
	at org.glassfish.jersey.servlet.ServletContainer.service(ServletContainer.java:205)
	at org.eclipse.jetty.servlet.ServletHolder.handle(ServletHolder.java:791)
	at org.eclipse.jetty.servlet.ServletHandler$ChainEnd.doFilter(ServletHandler.java:1626)
	at org.eclipse.jetty.websocket.server.WebSocketUpgradeFilter.doFilter(WebSocketUpgradeFilter.java:228)
	at org.eclipse.jetty.servlet.FilterHolder.doFilter(FilterHolder.java:193)
	at org.eclipse.jetty.servlet.ServletHandler$Chain.doFilter(ServletHandler.java:1601)
	at org.springframework.web.filter.RequestContextFilter.doFilterInternal(RequestContextFilter.java:100)
	at org.springframework.web.filter.OncePerRequestFilter.doFilter(OncePerRequestFilter.java:119)
	at org.eclipse.jetty.servlet.FilterHolder.doFilter(FilterHolder.java:193)
	at org.eclipse.jetty.servlet.ServletHandler$Chain.doFilter(ServletHandler.java:1601)
	at org.springframework.web.filter.CharacterEncodingFilter.doFilterInternal(CharacterEncodingFilter.java:201)
	at org.springframework.web.filter.OncePerRequestFilter.doFilter(OncePerRequestFilter.java:119)
	at org.eclipse.jetty.servlet.FilterHolder.doFilter(FilterHolder.java:193)
	at org.eclipse.jetty.servlet.ServletHandler$Chain.doFilter(ServletHandler.java:1601)
	at org.eclipse.jetty.servlet.ServletHandler.doHandle(ServletHandler.java:548)
	at org.eclipse.jetty.server.handler.ScopedHandler.handle(ScopedHandler.java:143)
	at org.eclipse.jetty.security.SecurityHandler.handle(SecurityHandler.java:602)
	at org.eclipse.jetty.server.handler.HandlerWrapper.handle(HandlerWrapper.java:127)
	at org.eclipse.jetty.server.handler.ScopedHandler.nextHandle(ScopedHandler.java:235)
	at org.eclipse.jetty.server.session.SessionHandler.doHandle(SessionHandler.java:1624)
	at org.eclipse.jetty.server.handler.ScopedHandler.nextHandle(ScopedHandler.java:233)
	at org.eclipse.jetty.server.handler.ContextHandler.doHandle(ContextHandler.java:1435)
	at org.eclipse.jetty.server.handler.ScopedHandler.nextScope(ScopedHandler.java:188)
	at org.eclipse.jetty.servlet.ServletHandler.doScope(ServletHandler.java:501)
	at org.eclipse.jetty.server.session.SessionHandler.doScope(SessionHandler.java:1594)
	at org.eclipse.jetty.server.handler.ScopedHandler.nextScope(ScopedHandler.java:186)
	at org.eclipse.jetty.server.handler.ContextHandler.doScope(ContextHandler.java:1350)
	at org.eclipse.jetty.server.handler.ScopedHandler.handle(ScopedHandler.java:141)
	at org.eclipse.jetty.server.handler.HandlerWrapper.handle(HandlerWrapper.java:127)
	at org.eclipse.jetty.server.Server.handle(Server.java:516)
	at org.eclipse.jetty.server.HttpChannel.lambda$handle$1(HttpChannel.java:388)
	at org.eclipse.jetty.server.HttpChannel.dispatch(HttpChannel.java:633)
	at org.eclipse.jetty.server.HttpChannel.handle(HttpChannel.java:380)
	at org.eclipse.jetty.server.HttpConnection.onFillable(HttpConnection.java:279)
	at org.eclipse.jetty.io.AbstractConnection$ReadCallback.succeeded(AbstractConnection.java:311)
	at org.eclipse.jetty.io.FillInterest.fillable(FillInterest.java:105)
	at org.eclipse.jetty.io.ChannelEndPoint$1.run(ChannelEndPoint.java:104)
	at org.eclipse.jetty.util.thread.QueuedThreadPool.runJob(QueuedThreadPool.java:882)
	at org.eclipse.jetty.util.thread.QueuedThreadPool$Runner.run(QueuedThreadPool.java:1036)
	at java.lang.Thread.run(Thread.java:748)
2021-12-26 15:50:30,354 INFO com.example.residencecms.config.filter.CustomLoggingResponseFilter:67 [qtp777190206-38] HTTP RESPONSE ==> RequestId: e75cfdc1-e846-416d-8811-7e910493e0ba - Header: {Content-Type=[application/json; charset=utf-8], Access-Control-Allow-Credentials=[true], Access-Control-Allow-Methods=[GET, POST, PUT, DELETE, OPTIONS, HEAD], Access-Control-Allow-Headers=[*], Access-Control-Allow-Origin=[*]} - Entity: {"requestId":"e75cfdc1-e846-416d-8811-7e910493e0ba","at":"26/12/2021 15:50:30","error":{"code":99}} - In: 3567 ms
2021-12-26 15:51:08,598 INFO com.example.residencecms.config.filter.CustomLoggingRequestFilter:64 [qtp777190206-41] HTTP REQUEST ==> RequestId: 8519ab54-4dc1-4b30-a272-a0799a45ee72 - Remote IP: [0:0:0:0:0:0:0:1] - Path: account/login - Header: {Accept=[*/*], User-Agent=[PostmanRuntime/7.28.4], Connection=[keep-alive], Postman-Token=[f126ba8e-cbef-4a4e-ac1a-53228d1b70fe], Host=[localhost:10901], Accept-Encoding=[gzip, deflate, br], Content-Length=[56], Content-Type=[application/json]} - QueryString: null - Entity: {
    "username":"admin",
    "password":"123@123a"
}

2021-12-26 15:51:08,613 ERROR com.example.residencecms.exception.mapper.GenericExceptionMapper:25 [qtp777190206-41] requestId: 8519ab54-4dc1-4b30-a272-a0799a45ee72, [GENERIC EXCEPTION] ==> null
java.lang.NullPointerException: null
	at com.example.residencecms.sys.service.impl.AccountServiceImpl.loginAccount(AccountServiceImpl.java:61)
	at com.example.residencecms.sys.service.impl.AccountServiceImpl$$FastClassBySpringCGLIB$$634b0d42.invoke(<generated>)
	at org.springframework.cglib.proxy.MethodProxy.invoke(MethodProxy.java:218)
	at org.springframework.aop.framework.CglibAopProxy$CglibMethodInvocation.invokeJoinpoint(CglibAopProxy.java:779)
	at org.springframework.aop.framework.ReflectiveMethodInvocation.proceed(ReflectiveMethodInvocation.java:163)
	at org.springframework.aop.framework.CglibAopProxy$CglibMethodInvocation.proceed(CglibAopProxy.java:750)
	at org.springframework.transaction.interceptor.TransactionInterceptor$1.proceedWithInvocation(TransactionInterceptor.java:123)
	at org.springframework.transaction.interceptor.TransactionAspectSupport.invokeWithinTransaction(TransactionAspectSupport.java:388)
	at org.springframework.transaction.interceptor.TransactionInterceptor.invoke(TransactionInterceptor.java:119)
	at org.springframework.aop.framework.ReflectiveMethodInvocation.proceed(ReflectiveMethodInvocation.java:186)
	at org.springframework.aop.framework.CglibAopProxy$CglibMethodInvocation.proceed(CglibAopProxy.java:750)
	at org.springframework.aop.framework.CglibAopProxy$DynamicAdvisedInterceptor.intercept(CglibAopProxy.java:692)
	at com.example.residencecms.sys.service.impl.AccountServiceImpl$$EnhancerBySpringCGLIB$$c6bdf11e.loginAccount(<generated>)
	at com.example.residencecms.sys.controller.AccountController.loginAccount(AccountController.java:46)
	at sun.reflect.NativeMethodAccessorImpl.invoke0(Native Method)
	at sun.reflect.NativeMethodAccessorImpl.invoke(NativeMethodAccessorImpl.java:62)
	at sun.reflect.DelegatingMethodAccessorImpl.invoke(DelegatingMethodAccessorImpl.java:43)
	at java.lang.reflect.Method.invoke(Method.java:498)
	at org.glassfish.jersey.server.model.internal.ResourceMethodInvocationHandlerFactory.lambda$static$0(ResourceMethodInvocationHandlerFactory.java:52)
	at org.glassfish.jersey.server.model.internal.AbstractJavaResourceMethodDispatcher$1.run(AbstractJavaResourceMethodDispatcher.java:124)
	at org.glassfish.jersey.server.model.internal.AbstractJavaResourceMethodDispatcher.invoke(AbstractJavaResourceMethodDispatcher.java:167)
	at org.glassfish.jersey.server.model.internal.JavaResourceMethodDispatcherProvider$ResponseOutInvoker.doDispatch(JavaResourceMethodDispatcherProvider.java:176)
	at org.glassfish.jersey.server.model.internal.AbstractJavaResourceMethodDispatcher.dispatch(AbstractJavaResourceMethodDispatcher.java:79)
	at org.glassfish.jersey.server.model.ResourceMethodInvoker.invoke(ResourceMethodInvoker.java:469)
	at org.glassfish.jersey.server.model.ResourceMethodInvoker.apply(ResourceMethodInvoker.java:391)
	at org.glassfish.jersey.server.model.ResourceMethodInvoker.apply(ResourceMethodInvoker.java:80)
	at org.glassfish.jersey.server.ServerRuntime$1.run(ServerRuntime.java:255)
	at org.glassfish.jersey.internal.Errors$1.call(Errors.java:248)
	at org.glassfish.jersey.internal.Errors$1.call(Errors.java:244)
	at org.glassfish.jersey.internal.Errors.process(Errors.java:292)
	at org.glassfish.jersey.internal.Errors.process(Errors.java:274)
	at org.glassfish.jersey.internal.Errors.process(Errors.java:244)
	at org.glassfish.jersey.process.internal.RequestScope.runInScope(RequestScope.java:265)
	at org.glassfish.jersey.server.ServerRuntime.process(ServerRuntime.java:234)
	at org.glassfish.jersey.server.ApplicationHandler.handle(ApplicationHandler.java:680)
	at org.glassfish.jersey.servlet.WebComponent.serviceImpl(WebComponent.java:394)
	at org.glassfish.jersey.servlet.WebComponent.service(WebComponent.java:346)
	at org.glassfish.jersey.servlet.ServletContainer.service(ServletContainer.java:366)
	at org.glassfish.jersey.servlet.ServletContainer.service(ServletContainer.java:319)
	at org.glassfish.jersey.servlet.ServletContainer.service(ServletContainer.java:205)
	at org.eclipse.jetty.servlet.ServletHolder.handle(ServletHolder.java:791)
	at org.eclipse.jetty.servlet.ServletHandler$ChainEnd.doFilter(ServletHandler.java:1626)
	at org.eclipse.jetty.websocket.server.WebSocketUpgradeFilter.doFilter(WebSocketUpgradeFilter.java:228)
	at org.eclipse.jetty.servlet.FilterHolder.doFilter(FilterHolder.java:193)
	at org.eclipse.jetty.servlet.ServletHandler$Chain.doFilter(ServletHandler.java:1601)
	at org.springframework.web.filter.RequestContextFilter.doFilterInternal(RequestContextFilter.java:100)
	at org.springframework.web.filter.OncePerRequestFilter.doFilter(OncePerRequestFilter.java:119)
	at org.eclipse.jetty.servlet.FilterHolder.doFilter(FilterHolder.java:193)
	at org.eclipse.jetty.servlet.ServletHandler$Chain.doFilter(ServletHandler.java:1601)
	at org.springframework.web.filter.CharacterEncodingFilter.doFilterInternal(CharacterEncodingFilter.java:201)
	at org.springframework.web.filter.OncePerRequestFilter.doFilter(OncePerRequestFilter.java:119)
	at org.eclipse.jetty.servlet.FilterHolder.doFilter(FilterHolder.java:193)
	at org.eclipse.jetty.servlet.ServletHandler$Chain.doFilter(ServletHandler.java:1601)
	at org.eclipse.jetty.servlet.ServletHandler.doHandle(ServletHandler.java:548)
	at org.eclipse.jetty.server.handler.ScopedHandler.handle(ScopedHandler.java:143)
	at org.eclipse.jetty.security.SecurityHandler.handle(SecurityHandler.java:602)
	at org.eclipse.jetty.server.handler.HandlerWrapper.handle(HandlerWrapper.java:127)
	at org.eclipse.jetty.server.handler.ScopedHandler.nextHandle(ScopedHandler.java:235)
	at org.eclipse.jetty.server.session.SessionHandler.doHandle(SessionHandler.java:1624)
	at org.eclipse.jetty.server.handler.ScopedHandler.nextHandle(ScopedHandler.java:233)
	at org.eclipse.jetty.server.handler.ContextHandler.doHandle(ContextHandler.java:1435)
	at org.eclipse.jetty.server.handler.ScopedHandler.nextScope(ScopedHandler.java:188)
	at org.eclipse.jetty.servlet.ServletHandler.doScope(ServletHandler.java:501)
	at org.eclipse.jetty.server.session.SessionHandler.doScope(SessionHandler.java:1594)
	at org.eclipse.jetty.server.handler.ScopedHandler.nextScope(ScopedHandler.java:186)
	at org.eclipse.jetty.server.handler.ContextHandler.doScope(ContextHandler.java:1350)
	at org.eclipse.jetty.server.handler.ScopedHandler.handle(ScopedHandler.java:141)
	at org.eclipse.jetty.server.handler.HandlerWrapper.handle(HandlerWrapper.java:127)
	at org.eclipse.jetty.server.Server.handle(Server.java:516)
	at org.eclipse.jetty.server.HttpChannel.lambda$handle$1(HttpChannel.java:388)
	at org.eclipse.jetty.server.HttpChannel.dispatch(HttpChannel.java:633)
	at org.eclipse.jetty.server.HttpChannel.handle(HttpChannel.java:380)
	at org.eclipse.jetty.server.HttpConnection.onFillable(HttpConnection.java:279)
	at org.eclipse.jetty.io.AbstractConnection$ReadCallback.succeeded(AbstractConnection.java:311)
	at org.eclipse.jetty.io.FillInterest.fillable(FillInterest.java:105)
	at org.eclipse.jetty.io.ChannelEndPoint$1.run(ChannelEndPoint.java:104)
	at org.eclipse.jetty.util.thread.strategy.EatWhatYouKill.runTask(EatWhatYouKill.java:336)
	at org.eclipse.jetty.util.thread.strategy.EatWhatYouKill.doProduce(EatWhatYouKill.java:313)
	at org.eclipse.jetty.util.thread.strategy.EatWhatYouKill.tryProduce(EatWhatYouKill.java:171)
	at org.eclipse.jetty.util.thread.strategy.EatWhatYouKill.run(EatWhatYouKill.java:129)
	at org.eclipse.jetty.util.thread.ReservedThreadExecutor$ReservedThread.run(ReservedThreadExecutor.java:383)
	at org.eclipse.jetty.util.thread.QueuedThreadPool.runJob(QueuedThreadPool.java:882)
	at org.eclipse.jetty.util.thread.QueuedThreadPool$Runner.run(QueuedThreadPool.java:1036)
	at java.lang.Thread.run(Thread.java:748)
2021-12-26 15:51:08,616 INFO com.example.residencecms.config.filter.CustomLoggingResponseFilter:67 [qtp777190206-41] HTTP RESPONSE ==> RequestId: 8519ab54-4dc1-4b30-a272-a0799a45ee72 - Header: {Content-Type=[application/json; charset=utf-8], Access-Control-Allow-Credentials=[true], Access-Control-Allow-Methods=[GET, POST, PUT, DELETE, OPTIONS, HEAD], Access-Control-Allow-Headers=[*], Access-Control-Allow-Origin=[*]} - Entity: {"requestId":"8519ab54-4dc1-4b30-a272-a0799a45ee72","at":"26/12/2021 15:51:08","error":{"code":99}} - In: 18 ms
2021-12-26 15:54:10,556 INFO com.example.residencecms.config.filter.CustomLoggingRequestFilter:64 [qtp777190206-41] HTTP REQUEST ==> RequestId: ff499570-ccf7-4ae8-8abb-cfb1b80a6b39 - Remote IP: [0:0:0:0:0:0:0:1] - Path: account/login - Header: {Accept=[*/*], User-Agent=[PostmanRuntime/7.28.4], Connection=[keep-alive], Postman-Token=[57e501f1-0569-4f48-93b5-6cb0166bf970], Host=[localhost:10901], Accept-Encoding=[gzip, deflate, br], Content-Length=[56], Content-Type=[application/json]} - QueryString: null - Entity: {
    "username":"admin",
    "password":"123@123a"
}

2021-12-26 15:54:10,571 ERROR com.example.residencecms.exception.mapper.GenericExceptionMapper:25 [qtp777190206-41] requestId: ff499570-ccf7-4ae8-8abb-cfb1b80a6b39, [GENERIC EXCEPTION] ==> null
java.lang.NullPointerException: null
	at com.example.residencecms.sys.service.impl.AccountServiceImpl.loginAccount(AccountServiceImpl.java:61)
	at com.example.residencecms.sys.service.impl.AccountServiceImpl$$FastClassBySpringCGLIB$$634b0d42.invoke(<generated>)
	at org.springframework.cglib.proxy.MethodProxy.invoke(MethodProxy.java:218)
	at org.springframework.aop.framework.CglibAopProxy$CglibMethodInvocation.invokeJoinpoint(CglibAopProxy.java:779)
	at org.springframework.aop.framework.ReflectiveMethodInvocation.proceed(ReflectiveMethodInvocation.java:163)
	at org.springframework.aop.framework.CglibAopProxy$CglibMethodInvocation.proceed(CglibAopProxy.java:750)
	at org.springframework.transaction.interceptor.TransactionInterceptor$1.proceedWithInvocation(TransactionInterceptor.java:123)
	at org.springframework.transaction.interceptor.TransactionAspectSupport.invokeWithinTransaction(TransactionAspectSupport.java:388)
	at org.springframework.transaction.interceptor.TransactionInterceptor.invoke(TransactionInterceptor.java:119)
	at org.springframework.aop.framework.ReflectiveMethodInvocation.proceed(ReflectiveMethodInvocation.java:186)
	at org.springframework.aop.framework.CglibAopProxy$CglibMethodInvocation.proceed(CglibAopProxy.java:750)
	at org.springframework.aop.framework.CglibAopProxy$DynamicAdvisedInterceptor.intercept(CglibAopProxy.java:692)
	at com.example.residencecms.sys.service.impl.AccountServiceImpl$$EnhancerBySpringCGLIB$$c6bdf11e.loginAccount(<generated>)
	at com.example.residencecms.sys.controller.AccountController.loginAccount(AccountController.java:46)
	at sun.reflect.NativeMethodAccessorImpl.invoke0(Native Method)
	at sun.reflect.NativeMethodAccessorImpl.invoke(NativeMethodAccessorImpl.java:62)
	at sun.reflect.DelegatingMethodAccessorImpl.invoke(DelegatingMethodAccessorImpl.java:43)
	at java.lang.reflect.Method.invoke(Method.java:498)
	at org.glassfish.jersey.server.model.internal.ResourceMethodInvocationHandlerFactory.lambda$static$0(ResourceMethodInvocationHandlerFactory.java:52)
	at org.glassfish.jersey.server.model.internal.AbstractJavaResourceMethodDispatcher$1.run(AbstractJavaResourceMethodDispatcher.java:124)
	at org.glassfish.jersey.server.model.internal.AbstractJavaResourceMethodDispatcher.invoke(AbstractJavaResourceMethodDispatcher.java:167)
	at org.glassfish.jersey.server.model.internal.JavaResourceMethodDispatcherProvider$ResponseOutInvoker.doDispatch(JavaResourceMethodDispatcherProvider.java:176)
	at org.glassfish.jersey.server.model.internal.AbstractJavaResourceMethodDispatcher.dispatch(AbstractJavaResourceMethodDispatcher.java:79)
	at org.glassfish.jersey.server.model.ResourceMethodInvoker.invoke(ResourceMethodInvoker.java:469)
	at org.glassfish.jersey.server.model.ResourceMethodInvoker.apply(ResourceMethodInvoker.java:391)
	at org.glassfish.jersey.server.model.ResourceMethodInvoker.apply(ResourceMethodInvoker.java:80)
	at org.glassfish.jersey.server.ServerRuntime$1.run(ServerRuntime.java:255)
	at org.glassfish.jersey.internal.Errors$1.call(Errors.java:248)
	at org.glassfish.jersey.internal.Errors$1.call(Errors.java:244)
	at org.glassfish.jersey.internal.Errors.process(Errors.java:292)
	at org.glassfish.jersey.internal.Errors.process(Errors.java:274)
	at org.glassfish.jersey.internal.Errors.process(Errors.java:244)
	at org.glassfish.jersey.process.internal.RequestScope.runInScope(RequestScope.java:265)
	at org.glassfish.jersey.server.ServerRuntime.process(ServerRuntime.java:234)
	at org.glassfish.jersey.server.ApplicationHandler.handle(ApplicationHandler.java:680)
	at org.glassfish.jersey.servlet.WebComponent.serviceImpl(WebComponent.java:394)
	at org.glassfish.jersey.servlet.WebComponent.service(WebComponent.java:346)
	at org.glassfish.jersey.servlet.ServletContainer.service(ServletContainer.java:366)
	at org.glassfish.jersey.servlet.ServletContainer.service(ServletContainer.java:319)
	at org.glassfish.jersey.servlet.ServletContainer.service(ServletContainer.java:205)
	at org.eclipse.jetty.servlet.ServletHolder.handle(ServletHolder.java:791)
	at org.eclipse.jetty.servlet.ServletHandler$ChainEnd.doFilter(ServletHandler.java:1626)
	at org.eclipse.jetty.websocket.server.WebSocketUpgradeFilter.doFilter(WebSocketUpgradeFilter.java:228)
	at org.eclipse.jetty.servlet.FilterHolder.doFilter(FilterHolder.java:193)
	at org.eclipse.jetty.servlet.ServletHandler$Chain.doFilter(ServletHandler.java:1601)
	at org.springframework.web.filter.RequestContextFilter.doFilterInternal(RequestContextFilter.java:100)
	at org.springframework.web.filter.OncePerRequestFilter.doFilter(OncePerRequestFilter.java:119)
	at org.eclipse.jetty.servlet.FilterHolder.doFilter(FilterHolder.java:193)
	at org.eclipse.jetty.servlet.ServletHandler$Chain.doFilter(ServletHandler.java:1601)
	at org.springframework.web.filter.CharacterEncodingFilter.doFilterInternal(CharacterEncodingFilter.java:201)
	at org.springframework.web.filter.OncePerRequestFilter.doFilter(OncePerRequestFilter.java:119)
	at org.eclipse.jetty.servlet.FilterHolder.doFilter(FilterHolder.java:193)
	at org.eclipse.jetty.servlet.ServletHandler$Chain.doFilter(ServletHandler.java:1601)
	at org.eclipse.jetty.servlet.ServletHandler.doHandle(ServletHandler.java:548)
	at org.eclipse.jetty.server.handler.ScopedHandler.handle(ScopedHandler.java:143)
	at org.eclipse.jetty.security.SecurityHandler.handle(SecurityHandler.java:602)
	at org.eclipse.jetty.server.handler.HandlerWrapper.handle(HandlerWrapper.java:127)
	at org.eclipse.jetty.server.handler.ScopedHandler.nextHandle(ScopedHandler.java:235)
	at org.eclipse.jetty.server.session.SessionHandler.doHandle(SessionHandler.java:1624)
	at org.eclipse.jetty.server.handler.ScopedHandler.nextHandle(ScopedHandler.java:233)
	at org.eclipse.jetty.server.handler.ContextHandler.doHandle(ContextHandler.java:1435)
	at org.eclipse.jetty.server.handler.ScopedHandler.nextScope(ScopedHandler.java:188)
	at org.eclipse.jetty.servlet.ServletHandler.doScope(ServletHandler.java:501)
	at org.eclipse.jetty.server.session.SessionHandler.doScope(SessionHandler.java:1594)
	at org.eclipse.jetty.server.handler.ScopedHandler.nextScope(ScopedHandler.java:186)
	at org.eclipse.jetty.server.handler.ContextHandler.doScope(ContextHandler.java:1350)
	at org.eclipse.jetty.server.handler.ScopedHandler.handle(ScopedHandler.java:141)
	at org.eclipse.jetty.server.handler.HandlerWrapper.handle(HandlerWrapper.java:127)
	at org.eclipse.jetty.server.Server.handle(Server.java:516)
	at org.eclipse.jetty.server.HttpChannel.lambda$handle$1(HttpChannel.java:388)
	at org.eclipse.jetty.server.HttpChannel.dispatch(HttpChannel.java:633)
	at org.eclipse.jetty.server.HttpChannel.handle(HttpChannel.java:380)
	at org.eclipse.jetty.server.HttpConnection.onFillable(HttpConnection.java:279)
	at org.eclipse.jetty.io.AbstractConnection$ReadCallback.succeeded(AbstractConnection.java:311)
	at org.eclipse.jetty.io.FillInterest.fillable(FillInterest.java:105)
	at org.eclipse.jetty.io.ChannelEndPoint$1.run(ChannelEndPoint.java:104)
	at org.eclipse.jetty.util.thread.strategy.EatWhatYouKill.runTask(EatWhatYouKill.java:336)
	at org.eclipse.jetty.util.thread.strategy.EatWhatYouKill.doProduce(EatWhatYouKill.java:313)
	at org.eclipse.jetty.util.thread.strategy.EatWhatYouKill.tryProduce(EatWhatYouKill.java:171)
	at org.eclipse.jetty.util.thread.strategy.EatWhatYouKill.run(EatWhatYouKill.java:129)
	at org.eclipse.jetty.util.thread.ReservedThreadExecutor$ReservedThread.run(ReservedThreadExecutor.java:383)
	at org.eclipse.jetty.util.thread.QueuedThreadPool.runJob(QueuedThreadPool.java:882)
	at org.eclipse.jetty.util.thread.QueuedThreadPool$Runner.run(QueuedThreadPool.java:1036)
	at java.lang.Thread.run(Thread.java:748)
2021-12-26 15:54:10,573 INFO com.example.residencecms.config.filter.CustomLoggingResponseFilter:67 [qtp777190206-41] HTTP RESPONSE ==> RequestId: ff499570-ccf7-4ae8-8abb-cfb1b80a6b39 - Header: {Content-Type=[application/json; charset=utf-8], Access-Control-Allow-Credentials=[true], Access-Control-Allow-Methods=[GET, POST, PUT, DELETE, OPTIONS, HEAD], Access-Control-Allow-Headers=[*], Access-Control-Allow-Origin=[*]} - Entity: {"requestId":"ff499570-ccf7-4ae8-8abb-cfb1b80a6b39","at":"26/12/2021 15:54:10","error":{"code":99}} - In: 18 ms
2021-12-26 15:54:17,734 INFO com.example.residencecms.config.filter.CustomLoggingRequestFilter:64 [qtp777190206-40] HTTP REQUEST ==> RequestId: 3c34bff6-04e7-4695-9aa2-e20f20b17b18 - Remote IP: [0:0:0:0:0:0:0:1] - Path: account/add - Header: {Authorization=[Bearer eyJ0eXAiOiJKV1QiLCJhbGciOiJIUzUxMiJ9.eyJ1c2VyX2RhdGEiOiJ7XCJpZFwiOjIsXCJ1c2VyTmFtZVwiOlwiYWRtaW5cIixcInJvbGVzXCI6W1wiQURNSU5cIl19IiwiZXhwIjoxNjM4NzkxMzg5fQ.IA4In840ctoNa5K7a8vw7VdntpFEst4XLYV1x_lPiS9LuW7Wncc08_tG9fwTNughFYQIYwj4jsJbj1t7CumzMA], Accept=[*/*], User-Agent=[PostmanRuntime/7.28.4], Connection=[keep-alive], Postman-Token=[8795642f-c1b9-4eda-b15b-fac4e223dec5], Host=[localhost:10901], Accept-Encoding=[gzip, deflate, br], Content-Length=[55], Content-Type=[application/json]} - QueryString: null - Entity: {
    "username":"dung",
    "password":"123@123a"
}

2021-12-26 15:54:17,739 ERROR com.example.residencecms.exception.mapper.GenericExceptionMapper:25 [qtp777190206-40] requestId: 3c34bff6-04e7-4695-9aa2-e20f20b17b18, [GENERIC EXCEPTION] ==> User not authorized.
javax.ws.rs.ForbiddenException: User not authorized.
	at org.glassfish.jersey.server.filter.RolesAllowedDynamicFeature$RolesAllowedRequestFilter.filter(RolesAllowedDynamicFeature.java:115)
	at org.glassfish.jersey.server.ContainerFilteringStage.apply(ContainerFilteringStage.java:108)
	at org.glassfish.jersey.server.ContainerFilteringStage.apply(ContainerFilteringStage.java:44)
	at org.glassfish.jersey.process.internal.Stages.process(Stages.java:173)
	at org.glassfish.jersey.server.ServerRuntime$1.run(ServerRuntime.java:247)
	at org.glassfish.jersey.internal.Errors$1.call(Errors.java:248)
	at org.glassfish.jersey.internal.Errors$1.call(Errors.java:244)
	at org.glassfish.jersey.internal.Errors.process(Errors.java:292)
	at org.glassfish.jersey.internal.Errors.process(Errors.java:274)
	at org.glassfish.jersey.internal.Errors.process(Errors.java:244)
	at org.glassfish.jersey.process.internal.RequestScope.runInScope(RequestScope.java:265)
	at org.glassfish.jersey.server.ServerRuntime.process(ServerRuntime.java:234)
	at org.glassfish.jersey.server.ApplicationHandler.handle(ApplicationHandler.java:680)
	at org.glassfish.jersey.servlet.WebComponent.serviceImpl(WebComponent.java:394)
	at org.glassfish.jersey.servlet.WebComponent.service(WebComponent.java:346)
	at org.glassfish.jersey.servlet.ServletContainer.service(ServletContainer.java:366)
	at org.glassfish.jersey.servlet.ServletContainer.service(ServletContainer.java:319)
	at org.glassfish.jersey.servlet.ServletContainer.service(ServletContainer.java:205)
	at org.eclipse.jetty.servlet.ServletHolder.handle(ServletHolder.java:791)
	at org.eclipse.jetty.servlet.ServletHandler$ChainEnd.doFilter(ServletHandler.java:1626)
	at org.eclipse.jetty.websocket.server.WebSocketUpgradeFilter.doFilter(WebSocketUpgradeFilter.java:228)
	at org.eclipse.jetty.servlet.FilterHolder.doFilter(FilterHolder.java:193)
	at org.eclipse.jetty.servlet.ServletHandler$Chain.doFilter(ServletHandler.java:1601)
	at org.springframework.web.filter.RequestContextFilter.doFilterInternal(RequestContextFilter.java:100)
	at org.springframework.web.filter.OncePerRequestFilter.doFilter(OncePerRequestFilter.java:119)
	at org.eclipse.jetty.servlet.FilterHolder.doFilter(FilterHolder.java:193)
	at org.eclipse.jetty.servlet.ServletHandler$Chain.doFilter(ServletHandler.java:1601)
	at org.springframework.web.filter.CharacterEncodingFilter.doFilterInternal(CharacterEncodingFilter.java:201)
	at org.springframework.web.filter.OncePerRequestFilter.doFilter(OncePerRequestFilter.java:119)
	at org.eclipse.jetty.servlet.FilterHolder.doFilter(FilterHolder.java:193)
	at org.eclipse.jetty.servlet.ServletHandler$Chain.doFilter(ServletHandler.java:1601)
	at org.eclipse.jetty.servlet.ServletHandler.doHandle(ServletHandler.java:548)
	at org.eclipse.jetty.server.handler.ScopedHandler.handle(ScopedHandler.java:143)
	at org.eclipse.jetty.security.SecurityHandler.handle(SecurityHandler.java:602)
	at org.eclipse.jetty.server.handler.HandlerWrapper.handle(HandlerWrapper.java:127)
	at org.eclipse.jetty.server.handler.ScopedHandler.nextHandle(ScopedHandler.java:235)
	at org.eclipse.jetty.server.session.SessionHandler.doHandle(SessionHandler.java:1624)
	at org.eclipse.jetty.server.handler.ScopedHandler.nextHandle(ScopedHandler.java:233)
	at org.eclipse.jetty.server.handler.ContextHandler.doHandle(ContextHandler.java:1435)
	at org.eclipse.jetty.server.handler.ScopedHandler.nextScope(ScopedHandler.java:188)
	at org.eclipse.jetty.servlet.ServletHandler.doScope(ServletHandler.java:501)
	at org.eclipse.jetty.server.session.SessionHandler.doScope(SessionHandler.java:1594)
	at org.eclipse.jetty.server.handler.ScopedHandler.nextScope(ScopedHandler.java:186)
	at org.eclipse.jetty.server.handler.ContextHandler.doScope(ContextHandler.java:1350)
	at org.eclipse.jetty.server.handler.ScopedHandler.handle(ScopedHandler.java:141)
	at org.eclipse.jetty.server.handler.HandlerWrapper.handle(HandlerWrapper.java:127)
	at org.eclipse.jetty.server.Server.handle(Server.java:516)
	at org.eclipse.jetty.server.HttpChannel.lambda$handle$1(HttpChannel.java:388)
	at org.eclipse.jetty.server.HttpChannel.dispatch(HttpChannel.java:633)
	at org.eclipse.jetty.server.HttpChannel.handle(HttpChannel.java:380)
	at org.eclipse.jetty.server.HttpConnection.onFillable(HttpConnection.java:279)
	at org.eclipse.jetty.io.AbstractConnection$ReadCallback.succeeded(AbstractConnection.java:311)
	at org.eclipse.jetty.io.FillInterest.fillable(FillInterest.java:105)
	at org.eclipse.jetty.io.ChannelEndPoint$1.run(ChannelEndPoint.java:104)
	at org.eclipse.jetty.util.thread.strategy.EatWhatYouKill.runTask(EatWhatYouKill.java:336)
	at org.eclipse.jetty.util.thread.strategy.EatWhatYouKill.doProduce(EatWhatYouKill.java:313)
	at org.eclipse.jetty.util.thread.strategy.EatWhatYouKill.tryProduce(EatWhatYouKill.java:171)
	at org.eclipse.jetty.util.thread.strategy.EatWhatYouKill.run(EatWhatYouKill.java:129)
	at org.eclipse.jetty.util.thread.ReservedThreadExecutor$ReservedThread.run(ReservedThreadExecutor.java:383)
	at org.eclipse.jetty.util.thread.QueuedThreadPool.runJob(QueuedThreadPool.java:882)
	at org.eclipse.jetty.util.thread.QueuedThreadPool$Runner.run(QueuedThreadPool.java:1036)
	at java.lang.Thread.run(Thread.java:748)
2021-12-26 15:54:17,743 INFO com.example.residencecms.config.filter.CustomLoggingResponseFilter:67 [qtp777190206-40] HTTP RESPONSE ==> RequestId: 3c34bff6-04e7-4695-9aa2-e20f20b17b18 - Header: {Content-Type=[application/json; charset=utf-8], Access-Control-Allow-Credentials=[true], Access-Control-Allow-Methods=[GET, POST, PUT, DELETE, OPTIONS, HEAD], Access-Control-Allow-Headers=[*], Access-Control-Allow-Origin=[*]} - Entity: {"requestId":"3c34bff6-04e7-4695-9aa2-e20f20b17b18","at":"26/12/2021 15:54:17","error":{"code":403,"message":"User not authorized."}} - In: 10 ms
2021-12-26 15:54:24,237 INFO com.example.residencecms.config.filter.CustomLoggingRequestFilter:64 [qtp777190206-41] HTTP REQUEST ==> RequestId: a7457f0f-d430-4257-b19e-9f4c597fef46 - Remote IP: [0:0:0:0:0:0:0:1] - Path: account/login - Header: {Accept=[*/*], User-Agent=[PostmanRuntime/7.28.4], Connection=[keep-alive], Postman-Token=[04a714ec-1b99-4ba6-8d28-fb98e7f70842], Host=[localhost:10901], Accept-Encoding=[gzip, deflate, br], Content-Length=[56], Content-Type=[application/json]} - QueryString: null - Entity: {
    "username":"admin",
    "password":"123@123a"
}

2021-12-26 15:54:24,248 ERROR com.example.residencecms.exception.mapper.GenericExceptionMapper:25 [qtp777190206-41] requestId: a7457f0f-d430-4257-b19e-9f4c597fef46, [GENERIC EXCEPTION] ==> null
java.lang.NullPointerException: null
	at com.example.residencecms.sys.service.impl.AccountServiceImpl.loginAccount(AccountServiceImpl.java:61)
	at com.example.residencecms.sys.service.impl.AccountServiceImpl$$FastClassBySpringCGLIB$$634b0d42.invoke(<generated>)
	at org.springframework.cglib.proxy.MethodProxy.invoke(MethodProxy.java:218)
	at org.springframework.aop.framework.CglibAopProxy$CglibMethodInvocation.invokeJoinpoint(CglibAopProxy.java:779)
	at org.springframework.aop.framework.ReflectiveMethodInvocation.proceed(ReflectiveMethodInvocation.java:163)
	at org.springframework.aop.framework.CglibAopProxy$CglibMethodInvocation.proceed(CglibAopProxy.java:750)
	at org.springframework.transaction.interceptor.TransactionInterceptor$1.proceedWithInvocation(TransactionInterceptor.java:123)
	at org.springframework.transaction.interceptor.TransactionAspectSupport.invokeWithinTransaction(TransactionAspectSupport.java:388)
	at org.springframework.transaction.interceptor.TransactionInterceptor.invoke(TransactionInterceptor.java:119)
	at org.springframework.aop.framework.ReflectiveMethodInvocation.proceed(ReflectiveMethodInvocation.java:186)
	at org.springframework.aop.framework.CglibAopProxy$CglibMethodInvocation.proceed(CglibAopProxy.java:750)
	at org.springframework.aop.framework.CglibAopProxy$DynamicAdvisedInterceptor.intercept(CglibAopProxy.java:692)
	at com.example.residencecms.sys.service.impl.AccountServiceImpl$$EnhancerBySpringCGLIB$$c6bdf11e.loginAccount(<generated>)
	at com.example.residencecms.sys.controller.AccountController.loginAccount(AccountController.java:46)
	at sun.reflect.NativeMethodAccessorImpl.invoke0(Native Method)
	at sun.reflect.NativeMethodAccessorImpl.invoke(NativeMethodAccessorImpl.java:62)
	at sun.reflect.DelegatingMethodAccessorImpl.invoke(DelegatingMethodAccessorImpl.java:43)
	at java.lang.reflect.Method.invoke(Method.java:498)
	at org.glassfish.jersey.server.model.internal.ResourceMethodInvocationHandlerFactory.lambda$static$0(ResourceMethodInvocationHandlerFactory.java:52)
	at org.glassfish.jersey.server.model.internal.AbstractJavaResourceMethodDispatcher$1.run(AbstractJavaResourceMethodDispatcher.java:124)
	at org.glassfish.jersey.server.model.internal.AbstractJavaResourceMethodDispatcher.invoke(AbstractJavaResourceMethodDispatcher.java:167)
	at org.glassfish.jersey.server.model.internal.JavaResourceMethodDispatcherProvider$ResponseOutInvoker.doDispatch(JavaResourceMethodDispatcherProvider.java:176)
	at org.glassfish.jersey.server.model.internal.AbstractJavaResourceMethodDispatcher.dispatch(AbstractJavaResourceMethodDispatcher.java:79)
	at org.glassfish.jersey.server.model.ResourceMethodInvoker.invoke(ResourceMethodInvoker.java:469)
	at org.glassfish.jersey.server.model.ResourceMethodInvoker.apply(ResourceMethodInvoker.java:391)
	at org.glassfish.jersey.server.model.ResourceMethodInvoker.apply(ResourceMethodInvoker.java:80)
	at org.glassfish.jersey.server.ServerRuntime$1.run(ServerRuntime.java:255)
	at org.glassfish.jersey.internal.Errors$1.call(Errors.java:248)
	at org.glassfish.jersey.internal.Errors$1.call(Errors.java:244)
	at org.glassfish.jersey.internal.Errors.process(Errors.java:292)
	at org.glassfish.jersey.internal.Errors.process(Errors.java:274)
	at org.glassfish.jersey.internal.Errors.process(Errors.java:244)
	at org.glassfish.jersey.process.internal.RequestScope.runInScope(RequestScope.java:265)
	at org.glassfish.jersey.server.ServerRuntime.process(ServerRuntime.java:234)
	at org.glassfish.jersey.server.ApplicationHandler.handle(ApplicationHandler.java:680)
	at org.glassfish.jersey.servlet.WebComponent.serviceImpl(WebComponent.java:394)
	at org.glassfish.jersey.servlet.WebComponent.service(WebComponent.java:346)
	at org.glassfish.jersey.servlet.ServletContainer.service(ServletContainer.java:366)
	at org.glassfish.jersey.servlet.ServletContainer.service(ServletContainer.java:319)
	at org.glassfish.jersey.servlet.ServletContainer.service(ServletContainer.java:205)
	at org.eclipse.jetty.servlet.ServletHolder.handle(ServletHolder.java:791)
	at org.eclipse.jetty.servlet.ServletHandler$ChainEnd.doFilter(ServletHandler.java:1626)
	at org.eclipse.jetty.websocket.server.WebSocketUpgradeFilter.doFilter(WebSocketUpgradeFilter.java:228)
	at org.eclipse.jetty.servlet.FilterHolder.doFilter(FilterHolder.java:193)
	at org.eclipse.jetty.servlet.ServletHandler$Chain.doFilter(ServletHandler.java:1601)
	at org.springframework.web.filter.RequestContextFilter.doFilterInternal(RequestContextFilter.java:100)
	at org.springframework.web.filter.OncePerRequestFilter.doFilter(OncePerRequestFilter.java:119)
	at org.eclipse.jetty.servlet.FilterHolder.doFilter(FilterHolder.java:193)
	at org.eclipse.jetty.servlet.ServletHandler$Chain.doFilter(ServletHandler.java:1601)
	at org.springframework.web.filter.CharacterEncodingFilter.doFilterInternal(CharacterEncodingFilter.java:201)
	at org.springframework.web.filter.OncePerRequestFilter.doFilter(OncePerRequestFilter.java:119)
	at org.eclipse.jetty.servlet.FilterHolder.doFilter(FilterHolder.java:193)
	at org.eclipse.jetty.servlet.ServletHandler$Chain.doFilter(ServletHandler.java:1601)
	at org.eclipse.jetty.servlet.ServletHandler.doHandle(ServletHandler.java:548)
	at org.eclipse.jetty.server.handler.ScopedHandler.handle(ScopedHandler.java:143)
	at org.eclipse.jetty.security.SecurityHandler.handle(SecurityHandler.java:602)
	at org.eclipse.jetty.server.handler.HandlerWrapper.handle(HandlerWrapper.java:127)
	at org.eclipse.jetty.server.handler.ScopedHandler.nextHandle(ScopedHandler.java:235)
	at org.eclipse.jetty.server.session.SessionHandler.doHandle(SessionHandler.java:1624)
	at org.eclipse.jetty.server.handler.ScopedHandler.nextHandle(ScopedHandler.java:233)
	at org.eclipse.jetty.server.handler.ContextHandler.doHandle(ContextHandler.java:1435)
	at org.eclipse.jetty.server.handler.ScopedHandler.nextScope(ScopedHandler.java:188)
	at org.eclipse.jetty.servlet.ServletHandler.doScope(ServletHandler.java:501)
	at org.eclipse.jetty.server.session.SessionHandler.doScope(SessionHandler.java:1594)
	at org.eclipse.jetty.server.handler.ScopedHandler.nextScope(ScopedHandler.java:186)
	at org.eclipse.jetty.server.handler.ContextHandler.doScope(ContextHandler.java:1350)
	at org.eclipse.jetty.server.handler.ScopedHandler.handle(ScopedHandler.java:141)
	at org.eclipse.jetty.server.handler.HandlerWrapper.handle(HandlerWrapper.java:127)
	at org.eclipse.jetty.server.Server.handle(Server.java:516)
	at org.eclipse.jetty.server.HttpChannel.lambda$handle$1(HttpChannel.java:388)
	at org.eclipse.jetty.server.HttpChannel.dispatch(HttpChannel.java:633)
	at org.eclipse.jetty.server.HttpChannel.handle(HttpChannel.java:380)
	at org.eclipse.jetty.server.HttpConnection.onFillable(HttpConnection.java:279)
	at org.eclipse.jetty.io.AbstractConnection$ReadCallback.succeeded(AbstractConnection.java:311)
	at org.eclipse.jetty.io.FillInterest.fillable(FillInterest.java:105)
	at org.eclipse.jetty.io.ChannelEndPoint$1.run(ChannelEndPoint.java:104)
	at org.eclipse.jetty.util.thread.strategy.EatWhatYouKill.runTask(EatWhatYouKill.java:336)
	at org.eclipse.jetty.util.thread.strategy.EatWhatYouKill.doProduce(EatWhatYouKill.java:313)
	at org.eclipse.jetty.util.thread.strategy.EatWhatYouKill.tryProduce(EatWhatYouKill.java:171)
	at org.eclipse.jetty.util.thread.strategy.EatWhatYouKill.run(EatWhatYouKill.java:129)
	at org.eclipse.jetty.util.thread.ReservedThreadExecutor$ReservedThread.run(ReservedThreadExecutor.java:383)
	at org.eclipse.jetty.util.thread.QueuedThreadPool.runJob(QueuedThreadPool.java:882)
	at org.eclipse.jetty.util.thread.QueuedThreadPool$Runner.run(QueuedThreadPool.java:1036)
	at java.lang.Thread.run(Thread.java:748)
2021-12-26 15:54:24,250 INFO com.example.residencecms.config.filter.CustomLoggingResponseFilter:67 [qtp777190206-41] HTTP RESPONSE ==> RequestId: a7457f0f-d430-4257-b19e-9f4c597fef46 - Header: {Content-Type=[application/json; charset=utf-8], Access-Control-Allow-Credentials=[true], Access-Control-Allow-Methods=[GET, POST, PUT, DELETE, OPTIONS, HEAD], Access-Control-Allow-Headers=[*], Access-Control-Allow-Origin=[*]} - Entity: {"requestId":"a7457f0f-d430-4257-b19e-9f4c597fef46","at":"26/12/2021 15:54:24","error":{"code":99}} - In: 13 ms
2021-12-26 15:54:25,523 INFO com.example.residencecms.config.filter.CustomLoggingRequestFilter:64 [qtp777190206-40] HTTP REQUEST ==> RequestId: 70552f2d-ce8a-43b9-9f55-b4a382708b87 - Remote IP: [0:0:0:0:0:0:0:1] - Path: account/login - Header: {Accept=[*/*], User-Agent=[PostmanRuntime/7.28.4], Connection=[keep-alive], Postman-Token=[bcfdfaad-bfd3-48fc-b2e2-e3d666a37f99], Host=[localhost:10901], Accept-Encoding=[gzip, deflate, br], Content-Length=[56], Content-Type=[application/json]} - QueryString: null - Entity: {
    "username":"admin",
    "password":"123@123a"
}

2021-12-26 15:54:25,568 ERROR com.example.residencecms.exception.mapper.GenericExceptionMapper:25 [qtp777190206-40] requestId: 70552f2d-ce8a-43b9-9f55-b4a382708b87, [GENERIC EXCEPTION] ==> null
java.lang.NullPointerException: null
	at com.example.residencecms.sys.service.impl.AccountServiceImpl.loginAccount(AccountServiceImpl.java:61)
	at com.example.residencecms.sys.service.impl.AccountServiceImpl$$FastClassBySpringCGLIB$$634b0d42.invoke(<generated>)
	at org.springframework.cglib.proxy.MethodProxy.invoke(MethodProxy.java:218)
	at org.springframework.aop.framework.CglibAopProxy$CglibMethodInvocation.invokeJoinpoint(CglibAopProxy.java:779)
	at org.springframework.aop.framework.ReflectiveMethodInvocation.proceed(ReflectiveMethodInvocation.java:163)
	at org.springframework.aop.framework.CglibAopProxy$CglibMethodInvocation.proceed(CglibAopProxy.java:750)
	at org.springframework.transaction.interceptor.TransactionInterceptor$1.proceedWithInvocation(TransactionInterceptor.java:123)
	at org.springframework.transaction.interceptor.TransactionAspectSupport.invokeWithinTransaction(TransactionAspectSupport.java:388)
	at org.springframework.transaction.interceptor.TransactionInterceptor.invoke(TransactionInterceptor.java:119)
	at org.springframework.aop.framework.ReflectiveMethodInvocation.proceed(ReflectiveMethodInvocation.java:186)
	at org.springframework.aop.framework.CglibAopProxy$CglibMethodInvocation.proceed(CglibAopProxy.java:750)
	at org.springframework.aop.framework.CglibAopProxy$DynamicAdvisedInterceptor.intercept(CglibAopProxy.java:692)
	at com.example.residencecms.sys.service.impl.AccountServiceImpl$$EnhancerBySpringCGLIB$$c6bdf11e.loginAccount(<generated>)
	at com.example.residencecms.sys.controller.AccountController.loginAccount(AccountController.java:46)
	at sun.reflect.NativeMethodAccessorImpl.invoke0(Native Method)
	at sun.reflect.NativeMethodAccessorImpl.invoke(NativeMethodAccessorImpl.java:62)
	at sun.reflect.DelegatingMethodAccessorImpl.invoke(DelegatingMethodAccessorImpl.java:43)
	at java.lang.reflect.Method.invoke(Method.java:498)
	at org.glassfish.jersey.server.model.internal.ResourceMethodInvocationHandlerFactory.lambda$static$0(ResourceMethodInvocationHandlerFactory.java:52)
	at org.glassfish.jersey.server.model.internal.AbstractJavaResourceMethodDispatcher$1.run(AbstractJavaResourceMethodDispatcher.java:124)
	at org.glassfish.jersey.server.model.internal.AbstractJavaResourceMethodDispatcher.invoke(AbstractJavaResourceMethodDispatcher.java:167)
	at org.glassfish.jersey.server.model.internal.JavaResourceMethodDispatcherProvider$ResponseOutInvoker.doDispatch(JavaResourceMethodDispatcherProvider.java:176)
	at org.glassfish.jersey.server.model.internal.AbstractJavaResourceMethodDispatcher.dispatch(AbstractJavaResourceMethodDispatcher.java:79)
	at org.glassfish.jersey.server.model.ResourceMethodInvoker.invoke(ResourceMethodInvoker.java:469)
	at org.glassfish.jersey.server.model.ResourceMethodInvoker.apply(ResourceMethodInvoker.java:391)
	at org.glassfish.jersey.server.model.ResourceMethodInvoker.apply(ResourceMethodInvoker.java:80)
	at org.glassfish.jersey.server.ServerRuntime$1.run(ServerRuntime.java:255)
	at org.glassfish.jersey.internal.Errors$1.call(Errors.java:248)
	at org.glassfish.jersey.internal.Errors$1.call(Errors.java:244)
	at org.glassfish.jersey.internal.Errors.process(Errors.java:292)
	at org.glassfish.jersey.internal.Errors.process(Errors.java:274)
	at org.glassfish.jersey.internal.Errors.process(Errors.java:244)
	at org.glassfish.jersey.process.internal.RequestScope.runInScope(RequestScope.java:265)
	at org.glassfish.jersey.server.ServerRuntime.process(ServerRuntime.java:234)
	at org.glassfish.jersey.server.ApplicationHandler.handle(ApplicationHandler.java:680)
	at org.glassfish.jersey.servlet.WebComponent.serviceImpl(WebComponent.java:394)
	at org.glassfish.jersey.servlet.WebComponent.service(WebComponent.java:346)
	at org.glassfish.jersey.servlet.ServletContainer.service(ServletContainer.java:366)
	at org.glassfish.jersey.servlet.ServletContainer.service(ServletContainer.java:319)
	at org.glassfish.jersey.servlet.ServletContainer.service(ServletContainer.java:205)
	at org.eclipse.jetty.servlet.ServletHolder.handle(ServletHolder.java:791)
	at org.eclipse.jetty.servlet.ServletHandler$ChainEnd.doFilter(ServletHandler.java:1626)
	at org.eclipse.jetty.websocket.server.WebSocketUpgradeFilter.doFilter(WebSocketUpgradeFilter.java:228)
	at org.eclipse.jetty.servlet.FilterHolder.doFilter(FilterHolder.java:193)
	at org.eclipse.jetty.servlet.ServletHandler$Chain.doFilter(ServletHandler.java:1601)
	at org.springframework.web.filter.RequestContextFilter.doFilterInternal(RequestContextFilter.java:100)
	at org.springframework.web.filter.OncePerRequestFilter.doFilter(OncePerRequestFilter.java:119)
	at org.eclipse.jetty.servlet.FilterHolder.doFilter(FilterHolder.java:193)
	at org.eclipse.jetty.servlet.ServletHandler$Chain.doFilter(ServletHandler.java:1601)
	at org.springframework.web.filter.CharacterEncodingFilter.doFilterInternal(CharacterEncodingFilter.java:201)
	at org.springframework.web.filter.OncePerRequestFilter.doFilter(OncePerRequestFilter.java:119)
	at org.eclipse.jetty.servlet.FilterHolder.doFilter(FilterHolder.java:193)
	at org.eclipse.jetty.servlet.ServletHandler$Chain.doFilter(ServletHandler.java:1601)
	at org.eclipse.jetty.servlet.ServletHandler.doHandle(ServletHandler.java:548)
	at org.eclipse.jetty.server.handler.ScopedHandler.handle(ScopedHandler.java:143)
	at org.eclipse.jetty.security.SecurityHandler.handle(SecurityHandler.java:602)
	at org.eclipse.jetty.server.handler.HandlerWrapper.handle(HandlerWrapper.java:127)
	at org.eclipse.jetty.server.handler.ScopedHandler.nextHandle(ScopedHandler.java:235)
	at org.eclipse.jetty.server.session.SessionHandler.doHandle(SessionHandler.java:1624)
	at org.eclipse.jetty.server.handler.ScopedHandler.nextHandle(ScopedHandler.java:233)
	at org.eclipse.jetty.server.handler.ContextHandler.doHandle(ContextHandler.java:1435)
	at org.eclipse.jetty.server.handler.ScopedHandler.nextScope(ScopedHandler.java:188)
	at org.eclipse.jetty.servlet.ServletHandler.doScope(ServletHandler.java:501)
	at org.eclipse.jetty.server.session.SessionHandler.doScope(SessionHandler.java:1594)
	at org.eclipse.jetty.server.handler.ScopedHandler.nextScope(ScopedHandler.java:186)
	at org.eclipse.jetty.server.handler.ContextHandler.doScope(ContextHandler.java:1350)
	at org.eclipse.jetty.server.handler.ScopedHandler.handle(ScopedHandler.java:141)
	at org.eclipse.jetty.server.handler.HandlerWrapper.handle(HandlerWrapper.java:127)
	at org.eclipse.jetty.server.Server.handle(Server.java:516)
	at org.eclipse.jetty.server.HttpChannel.lambda$handle$1(HttpChannel.java:388)
	at org.eclipse.jetty.server.HttpChannel.dispatch(HttpChannel.java:633)
	at org.eclipse.jetty.server.HttpChannel.handle(HttpChannel.java:380)
	at org.eclipse.jetty.server.HttpConnection.onFillable(HttpConnection.java:279)
	at org.eclipse.jetty.io.AbstractConnection$ReadCallback.succeeded(AbstractConnection.java:311)
	at org.eclipse.jetty.io.FillInterest.fillable(FillInterest.java:105)
	at org.eclipse.jetty.io.ChannelEndPoint$1.run(ChannelEndPoint.java:104)
	at org.eclipse.jetty.util.thread.strategy.EatWhatYouKill.runTask(EatWhatYouKill.java:336)
	at org.eclipse.jetty.util.thread.strategy.EatWhatYouKill.doProduce(EatWhatYouKill.java:313)
	at org.eclipse.jetty.util.thread.strategy.EatWhatYouKill.tryProduce(EatWhatYouKill.java:171)
	at org.eclipse.jetty.util.thread.strategy.EatWhatYouKill.run(EatWhatYouKill.java:129)
	at org.eclipse.jetty.util.thread.ReservedThreadExecutor$ReservedThread.run(ReservedThreadExecutor.java:383)
	at org.eclipse.jetty.util.thread.QueuedThreadPool.runJob(QueuedThreadPool.java:882)
	at org.eclipse.jetty.util.thread.QueuedThreadPool$Runner.run(QueuedThreadPool.java:1036)
	at java.lang.Thread.run(Thread.java:748)
2021-12-26 15:54:25,569 INFO com.example.residencecms.config.filter.CustomLoggingResponseFilter:67 [qtp777190206-40] HTTP RESPONSE ==> RequestId: 70552f2d-ce8a-43b9-9f55-b4a382708b87 - Header: {Content-Type=[application/json; charset=utf-8], Access-Control-Allow-Credentials=[true], Access-Control-Allow-Methods=[GET, POST, PUT, DELETE, OPTIONS, HEAD], Access-Control-Allow-Headers=[*], Access-Control-Allow-Origin=[*]} - Entity: {"requestId":"70552f2d-ce8a-43b9-9f55-b4a382708b87","at":"26/12/2021 15:54:25","error":{"code":99}} - In: 46 ms
2021-12-26 15:54:26,128 INFO com.example.residencecms.config.filter.CustomLoggingRequestFilter:64 [qtp777190206-41] HTTP REQUEST ==> RequestId: 7004a094-26d2-46a4-a883-9bc72a487f82 - Remote IP: [0:0:0:0:0:0:0:1] - Path: account/login - Header: {Accept=[*/*], User-Agent=[PostmanRuntime/7.28.4], Connection=[keep-alive], Postman-Token=[4ffced8e-8f3d-4689-9a1c-105958bf57c1], Host=[localhost:10901], Accept-Encoding=[gzip, deflate, br], Content-Length=[56], Content-Type=[application/json]} - QueryString: null - Entity: {
    "username":"admin",
    "password":"123@123a"
}

2021-12-26 15:54:26,139 ERROR com.example.residencecms.exception.mapper.GenericExceptionMapper:25 [qtp777190206-41] requestId: 7004a094-26d2-46a4-a883-9bc72a487f82, [GENERIC EXCEPTION] ==> null
java.lang.NullPointerException: null
	at com.example.residencecms.sys.service.impl.AccountServiceImpl.loginAccount(AccountServiceImpl.java:61)
	at com.example.residencecms.sys.service.impl.AccountServiceImpl$$FastClassBySpringCGLIB$$634b0d42.invoke(<generated>)
	at org.springframework.cglib.proxy.MethodProxy.invoke(MethodProxy.java:218)
	at org.springframework.aop.framework.CglibAopProxy$CglibMethodInvocation.invokeJoinpoint(CglibAopProxy.java:779)
	at org.springframework.aop.framework.ReflectiveMethodInvocation.proceed(ReflectiveMethodInvocation.java:163)
	at org.springframework.aop.framework.CglibAopProxy$CglibMethodInvocation.proceed(CglibAopProxy.java:750)
	at org.springframework.transaction.interceptor.TransactionInterceptor$1.proceedWithInvocation(TransactionInterceptor.java:123)
	at org.springframework.transaction.interceptor.TransactionAspectSupport.invokeWithinTransaction(TransactionAspectSupport.java:388)
	at org.springframework.transaction.interceptor.TransactionInterceptor.invoke(TransactionInterceptor.java:119)
	at org.springframework.aop.framework.ReflectiveMethodInvocation.proceed(ReflectiveMethodInvocation.java:186)
	at org.springframework.aop.framework.CglibAopProxy$CglibMethodInvocation.proceed(CglibAopProxy.java:750)
	at org.springframework.aop.framework.CglibAopProxy$DynamicAdvisedInterceptor.intercept(CglibAopProxy.java:692)
	at com.example.residencecms.sys.service.impl.AccountServiceImpl$$EnhancerBySpringCGLIB$$c6bdf11e.loginAccount(<generated>)
	at com.example.residencecms.sys.controller.AccountController.loginAccount(AccountController.java:46)
	at sun.reflect.NativeMethodAccessorImpl.invoke0(Native Method)
	at sun.reflect.NativeMethodAccessorImpl.invoke(NativeMethodAccessorImpl.java:62)
	at sun.reflect.DelegatingMethodAccessorImpl.invoke(DelegatingMethodAccessorImpl.java:43)
	at java.lang.reflect.Method.invoke(Method.java:498)
	at org.glassfish.jersey.server.model.internal.ResourceMethodInvocationHandlerFactory.lambda$static$0(ResourceMethodInvocationHandlerFactory.java:52)
	at org.glassfish.jersey.server.model.internal.AbstractJavaResourceMethodDispatcher$1.run(AbstractJavaResourceMethodDispatcher.java:124)
	at org.glassfish.jersey.server.model.internal.AbstractJavaResourceMethodDispatcher.invoke(AbstractJavaResourceMethodDispatcher.java:167)
	at org.glassfish.jersey.server.model.internal.JavaResourceMethodDispatcherProvider$ResponseOutInvoker.doDispatch(JavaResourceMethodDispatcherProvider.java:176)
	at org.glassfish.jersey.server.model.internal.AbstractJavaResourceMethodDispatcher.dispatch(AbstractJavaResourceMethodDispatcher.java:79)
	at org.glassfish.jersey.server.model.ResourceMethodInvoker.invoke(ResourceMethodInvoker.java:469)
	at org.glassfish.jersey.server.model.ResourceMethodInvoker.apply(ResourceMethodInvoker.java:391)
	at org.glassfish.jersey.server.model.ResourceMethodInvoker.apply(ResourceMethodInvoker.java:80)
	at org.glassfish.jersey.server.ServerRuntime$1.run(ServerRuntime.java:255)
	at org.glassfish.jersey.internal.Errors$1.call(Errors.java:248)
	at org.glassfish.jersey.internal.Errors$1.call(Errors.java:244)
	at org.glassfish.jersey.internal.Errors.process(Errors.java:292)
	at org.glassfish.jersey.internal.Errors.process(Errors.java:274)
	at org.glassfish.jersey.internal.Errors.process(Errors.java:244)
	at org.glassfish.jersey.process.internal.RequestScope.runInScope(RequestScope.java:265)
	at org.glassfish.jersey.server.ServerRuntime.process(ServerRuntime.java:234)
	at org.glassfish.jersey.server.ApplicationHandler.handle(ApplicationHandler.java:680)
	at org.glassfish.jersey.servlet.WebComponent.serviceImpl(WebComponent.java:394)
	at org.glassfish.jersey.servlet.WebComponent.service(WebComponent.java:346)
	at org.glassfish.jersey.servlet.ServletContainer.service(ServletContainer.java:366)
	at org.glassfish.jersey.servlet.ServletContainer.service(ServletContainer.java:319)
	at org.glassfish.jersey.servlet.ServletContainer.service(ServletContainer.java:205)
	at org.eclipse.jetty.servlet.ServletHolder.handle(ServletHolder.java:791)
	at org.eclipse.jetty.servlet.ServletHandler$ChainEnd.doFilter(ServletHandler.java:1626)
	at org.eclipse.jetty.websocket.server.WebSocketUpgradeFilter.doFilter(WebSocketUpgradeFilter.java:228)
	at org.eclipse.jetty.servlet.FilterHolder.doFilter(FilterHolder.java:193)
	at org.eclipse.jetty.servlet.ServletHandler$Chain.doFilter(ServletHandler.java:1601)
	at org.springframework.web.filter.RequestContextFilter.doFilterInternal(RequestContextFilter.java:100)
	at org.springframework.web.filter.OncePerRequestFilter.doFilter(OncePerRequestFilter.java:119)
	at org.eclipse.jetty.servlet.FilterHolder.doFilter(FilterHolder.java:193)
	at org.eclipse.jetty.servlet.ServletHandler$Chain.doFilter(ServletHandler.java:1601)
	at org.springframework.web.filter.CharacterEncodingFilter.doFilterInternal(CharacterEncodingFilter.java:201)
	at org.springframework.web.filter.OncePerRequestFilter.doFilter(OncePerRequestFilter.java:119)
	at org.eclipse.jetty.servlet.FilterHolder.doFilter(FilterHolder.java:193)
	at org.eclipse.jetty.servlet.ServletHandler$Chain.doFilter(ServletHandler.java:1601)
	at org.eclipse.jetty.servlet.ServletHandler.doHandle(ServletHandler.java:548)
	at org.eclipse.jetty.server.handler.ScopedHandler.handle(ScopedHandler.java:143)
	at org.eclipse.jetty.security.SecurityHandler.handle(SecurityHandler.java:602)
	at org.eclipse.jetty.server.handler.HandlerWrapper.handle(HandlerWrapper.java:127)
	at org.eclipse.jetty.server.handler.ScopedHandler.nextHandle(ScopedHandler.java:235)
	at org.eclipse.jetty.server.session.SessionHandler.doHandle(SessionHandler.java:1624)
	at org.eclipse.jetty.server.handler.ScopedHandler.nextHandle(ScopedHandler.java:233)
	at org.eclipse.jetty.server.handler.ContextHandler.doHandle(ContextHandler.java:1435)
	at org.eclipse.jetty.server.handler.ScopedHandler.nextScope(ScopedHandler.java:188)
	at org.eclipse.jetty.servlet.ServletHandler.doScope(ServletHandler.java:501)
	at org.eclipse.jetty.server.session.SessionHandler.doScope(SessionHandler.java:1594)
	at org.eclipse.jetty.server.handler.ScopedHandler.nextScope(ScopedHandler.java:186)
	at org.eclipse.jetty.server.handler.ContextHandler.doScope(ContextHandler.java:1350)
	at org.eclipse.jetty.server.handler.ScopedHandler.handle(ScopedHandler.java:141)
	at org.eclipse.jetty.server.handler.HandlerWrapper.handle(HandlerWrapper.java:127)
	at org.eclipse.jetty.server.Server.handle(Server.java:516)
	at org.eclipse.jetty.server.HttpChannel.lambda$handle$1(HttpChannel.java:388)
	at org.eclipse.jetty.server.HttpChannel.dispatch(HttpChannel.java:633)
	at org.eclipse.jetty.server.HttpChannel.handle(HttpChannel.java:380)
	at org.eclipse.jetty.server.HttpConnection.onFillable(HttpConnection.java:279)
	at org.eclipse.jetty.io.AbstractConnection$ReadCallback.succeeded(AbstractConnection.java:311)
	at org.eclipse.jetty.io.FillInterest.fillable(FillInterest.java:105)
	at org.eclipse.jetty.io.ChannelEndPoint$1.run(ChannelEndPoint.java:104)
	at org.eclipse.jetty.util.thread.strategy.EatWhatYouKill.runTask(EatWhatYouKill.java:336)
	at org.eclipse.jetty.util.thread.strategy.EatWhatYouKill.doProduce(EatWhatYouKill.java:313)
	at org.eclipse.jetty.util.thread.strategy.EatWhatYouKill.tryProduce(EatWhatYouKill.java:171)
	at org.eclipse.jetty.util.thread.strategy.EatWhatYouKill.run(EatWhatYouKill.java:129)
	at org.eclipse.jetty.util.thread.ReservedThreadExecutor$ReservedThread.run(ReservedThreadExecutor.java:383)
	at org.eclipse.jetty.util.thread.QueuedThreadPool.runJob(QueuedThreadPool.java:882)
	at org.eclipse.jetty.util.thread.QueuedThreadPool$Runner.run(QueuedThreadPool.java:1036)
	at java.lang.Thread.run(Thread.java:748)
2021-12-26 15:54:26,142 INFO com.example.residencecms.config.filter.CustomLoggingResponseFilter:67 [qtp777190206-41] HTTP RESPONSE ==> RequestId: 7004a094-26d2-46a4-a883-9bc72a487f82 - Header: {Content-Type=[application/json; charset=utf-8], Access-Control-Allow-Credentials=[true], Access-Control-Allow-Methods=[GET, POST, PUT, DELETE, OPTIONS, HEAD], Access-Control-Allow-Headers=[*], Access-Control-Allow-Origin=[*]} - Entity: {"requestId":"7004a094-26d2-46a4-a883-9bc72a487f82","at":"26/12/2021 15:54:26","error":{"code":99}} - In: 15 ms
2021-12-26 15:55:49,172 INFO org.hibernate.validator.internal.util.Version:21 [background-preinit] HV000001: Hibernate Validator 6.1.7.Final
2021-12-26 15:55:49,190 INFO org.springframework.boot.StartupInfoLogger:55 [main] Starting ResidenceCmsApplication using Java 1.8.0_191 on LAPTOP-VJRTFRM5 with PID 4168 (J:\Hoc-tap\CNPM\resident-cms-backend\target\classes started by vutie in J:\Hoc-tap\CNPM\resident-cms-backend)
2021-12-26 15:55:49,191 INFO org.springframework.boot.SpringApplication:675 [main] No active profile set, falling back to default profiles: default
2021-12-26 15:55:49,273 INFO org.springframework.boot.logging.DeferredLog:255 [main] For additional web related logging consider setting the 'logging.level.web' property to 'DEBUG'
2021-12-26 15:55:50,590 INFO org.springframework.data.repository.config.RepositoryConfigurationDelegate:250 [main] Multiple Spring Data modules found, entering strict repository configuration mode!
2021-12-26 15:55:50,592 INFO org.springframework.data.repository.config.RepositoryConfigurationDelegate:128 [main] Bootstrapping Spring Data JDBC repositories in DEFAULT mode.
2021-12-26 15:55:50,667 INFO org.springframework.data.repository.config.RepositoryConfigurationExtensionSupport:349 [main] Spring Data JDBC - Could not safely identify store assignment for repository candidate interface com.example.residencecms.sys.repository.AccountRepo. If you want this repository to be a JDBC repository, consider annotating your entities with one of these annotations: org.springframework.data.relational.core.mapping.Table.
2021-12-26 15:55:50,669 INFO org.springframework.data.repository.config.RepositoryConfigurationDelegate:188 [main] Finished Spring Data repository scanning in 68 ms. Found 0 JDBC repository interfaces.
2021-12-26 15:55:50,688 INFO org.springframework.data.repository.config.RepositoryConfigurationDelegate:250 [main] Multiple Spring Data modules found, entering strict repository configuration mode!
2021-12-26 15:55:50,689 INFO org.springframework.data.repository.config.RepositoryConfigurationDelegate:128 [main] Bootstrapping Spring Data JPA repositories in DEFAULT mode.
2021-12-26 15:55:50,795 INFO org.springframework.data.repository.config.RepositoryConfigurationDelegate:188 [main] Finished Spring Data repository scanning in 98 ms. Found 1 JPA repository interfaces.
2021-12-26 15:55:51,255 INFO org.eclipse.jetty.util.log.Log:169 [main] Logging initialized @5293ms to org.eclipse.jetty.util.log.Slf4jLog
2021-12-26 15:55:51,385 INFO org.springframework.boot.web.embedded.jetty.JettyServletWebServerFactory:151 [main] Server initialized with port: 10901
2021-12-26 15:55:51,389 INFO org.eclipse.jetty.server.Server:375 [main] jetty-9.4.39.v20210325; built: 2021-03-25T14:42:11.471Z; git: 9fc7ca5a922f2a37b84ec9dbc26a5168cee7e667; jvm 1.8.0_191-b12
2021-12-26 15:55:51,424 INFO org.eclipse.jetty.server.handler.ContextHandler$Context:2363 [main] Initializing Spring embedded WebApplicationContext
2021-12-26 15:55:51,425 INFO org.springframework.boot.web.servlet.context.ServletWebServerApplicationContext:289 [main] Root WebApplicationContext: initialization completed in 2148 ms
2021-12-26 15:55:51,708 INFO org.eclipse.jetty.server.session.DefaultSessionIdManager:334 [main] DefaultSessionIdManager workerName=node0
2021-12-26 15:55:51,708 INFO org.eclipse.jetty.server.session.DefaultSessionIdManager:339 [main] No SessionScavenger set, using defaults
2021-12-26 15:55:51,710 INFO org.eclipse.jetty.server.session.HouseKeeper:132 [main] node0 Scavenging every 660000ms
2021-12-26 15:55:51,723 INFO org.eclipse.jetty.server.handler.ContextHandler:916 [main] Started o.s.b.w.e.j.JettyEmbeddedWebAppContext@65f58c6e{application,/api,[file:///C:/Users/vutie/AppData/Local/Temp/jetty-docbase.10901.8087848162786472617/],AVAILABLE}
2021-12-26 15:55:51,723 INFO org.eclipse.jetty.server.Server:415 [main] Started @5761ms
2021-12-26 15:55:51,880 INFO org.hibernate.jpa.internal.util.LogHelper:31 [main] HHH000204: Processing PersistenceUnitInfo [name: default]
2021-12-26 15:55:52,010 INFO org.hibernate.Version:44 [main] HHH000412: Hibernate ORM core version 5.4.30.Final
2021-12-26 15:55:52,161 INFO org.hibernate.annotations.common.reflection.java.JavaReflectionManager:56 [main] HCANN000001: Hibernate Commons Annotations {5.1.2.Final}
2021-12-26 15:55:52,306 INFO com.zaxxer.hikari.HikariDataSource:110 [main] HikariPool-1 - Starting...
2021-12-26 15:55:53,165 INFO com.zaxxer.hikari.HikariDataSource:123 [main] HikariPool-1 - Start completed.
2021-12-26 15:55:53,182 INFO org.hibernate.dialect.Dialect:175 [main] HHH000400: Using dialect: org.hibernate.dialect.Oracle12cDialect
2021-12-26 15:56:26,496 INFO org.hibernate.engine.transaction.jta.platform.internal.JtaPlatformInitiator:52 [main] HHH000490: Using JtaPlatform implementation: [org.hibernate.engine.transaction.jta.platform.internal.NoJtaPlatform]
2021-12-26 15:56:26,511 INFO org.springframework.orm.jpa.AbstractEntityManagerFactoryBean:437 [main] Initialized JPA EntityManagerFactory for persistence unit 'default'
2021-12-26 15:56:26,685 INFO org.ehcache.core.EhcacheManager:288 [main] Cache 'spamManager' created in EhcacheManager.
2021-12-26 15:56:28,400 WARN org.glassfish.jersey.internal.inject.Providers:497 [main] A provider sun.net.httpserver.AuthFilter registered in SERVER runtime does not implement any provider interfaces applicable in the SERVER runtime. Due to constraint configuration problems the provider sun.net.httpserver.AuthFilter will be ignored. 
2021-12-26 15:56:28,615 INFO org.eclipse.jetty.server.AbstractConnector:331 [main] Started ServerConnector@7068f7ca{HTTP/1.1, (http/1.1)}{0.0.0.0:10901}
2021-12-26 15:56:28,617 INFO org.springframework.boot.web.embedded.jetty.JettyWebServer:185 [main] Jetty started on port(s) 10901 (http/1.1) with context path '/api'
2021-12-26 15:56:28,633 INFO org.springframework.boot.StartupInfoLogger:61 [main] Started ResidenceCmsApplication in 40.288 seconds (JVM running for 42.67)
2021-12-26 15:56:48,453 INFO com.example.residencecms.config.filter.CustomLoggingRequestFilter:64 [qtp118881143-29] HTTP REQUEST ==> RequestId: 797dd929-1120-4fe3-a291-38e0b56eb777 - Remote IP: [0:0:0:0:0:0:0:1] - Path: account/login - Header: {Accept=[*/*], User-Agent=[PostmanRuntime/7.28.4], Connection=[keep-alive], Postman-Token=[0597bc93-634e-409c-9d2d-99d60d0ce07e], Host=[localhost:10901], Accept-Encoding=[gzip, deflate, br], Content-Length=[56], Content-Type=[application/json]} - QueryString: null - Entity: {
    "username":"admin",
    "password":"123@123a"
}

2021-12-26 15:56:48,967 INFO com.example.residencecms.config.filter.CustomLoggingResponseFilter:67 [qtp118881143-29] HTTP RESPONSE ==> RequestId: 797dd929-1120-4fe3-a291-38e0b56eb777 - Header: {Content-Type=[application/json; charset=utf-8], Access-Control-Allow-Credentials=[true], Access-Control-Allow-Methods=[GET, POST, PUT, DELETE, OPTIONS, HEAD], Access-Control-Allow-Headers=[*], Access-Control-Allow-Origin=[*]} - Entity: {"requestId":"797dd929-1120-4fe3-a291-38e0b56eb777","at":"26/12/2021 15:56:48","error":{"code":0,"message":"SUCCESS"},"data":{"userId":2,"username":"admin","role":"ADMIN","accessToken":"eyJ0eXAiOiJKV1QiLCJhbGciOiJIUzUxMiJ9.eyJ1c2VyX2RhdGEiOiJ7XCJpZFwiOjIsXCJ1c2VyTmFtZVwiOlwiYWRtaW5cIixcInJvbGVzXCI6W1wiQURNSU5cIl19IiwiZXhwIjoxNjQwNTEyNjA4fQ.Ec-m2GRh76WOwXtge-wyoigF_xEujRQ8cuoEVCgIxq-Rg2gBs2yoDkUXkpX0UUvgJxmvOboRkLyoetCmGQJkEw"}} - In: 524 ms
2021-12-26 15:57:18,978 INFO com.example.residencecms.config.filter.CustomLoggingRequestFilter:64 [qtp118881143-26] HTTP REQUEST ==> RequestId: d1b5a6ec-2795-4d7d-83d2-9fff161364ae - Remote IP: [0:0:0:0:0:0:0:1] - Path: account/add - Header: {Authorization=[Bearer eyJ0eXAiOiJKV1QiLCJhbGciOiJIUzUxMiJ9.eyJ1c2VyX2RhdGEiOiJ7XCJpZFwiOjIsXCJ1c2VyTmFtZVwiOlwiYWRtaW5cIixcInJvbGVzXCI6W1wiQURNSU5cIl19IiwiZXhwIjoxNjQwNTEyNjA4fQ.Ec-m2GRh76WOwXtge-wyoigF_xEujRQ8cuoEVCgIxq-Rg2gBs2yoDkUXkpX0UUvgJxmvOboRkLyoetCmGQJkEw], Accept=[*/*], User-Agent=[PostmanRuntime/7.28.4], Connection=[keep-alive], Postman-Token=[748ecf96-5db9-4e67-8e19-402324bd61b8], Host=[localhost:10901], Accept-Encoding=[gzip, deflate, br], Content-Length=[55], Content-Type=[application/json]} - QueryString: null - Entity: {
    "username":"dung",
    "password":"123@123a"
}

2021-12-26 15:57:18,993 ERROR com.example.residencecms.exception.mapper.GenericExceptionMapper:25 [qtp118881143-26] requestId: d1b5a6ec-2795-4d7d-83d2-9fff161364ae, [GENERIC EXCEPTION] ==> User not authorized.
javax.ws.rs.ForbiddenException: User not authorized.
	at org.glassfish.jersey.server.filter.RolesAllowedDynamicFeature$RolesAllowedRequestFilter.filter(RolesAllowedDynamicFeature.java:115)
	at org.glassfish.jersey.server.ContainerFilteringStage.apply(ContainerFilteringStage.java:108)
	at org.glassfish.jersey.server.ContainerFilteringStage.apply(ContainerFilteringStage.java:44)
	at org.glassfish.jersey.process.internal.Stages.process(Stages.java:173)
	at org.glassfish.jersey.server.ServerRuntime$1.run(ServerRuntime.java:247)
	at org.glassfish.jersey.internal.Errors$1.call(Errors.java:248)
	at org.glassfish.jersey.internal.Errors$1.call(Errors.java:244)
	at org.glassfish.jersey.internal.Errors.process(Errors.java:292)
	at org.glassfish.jersey.internal.Errors.process(Errors.java:274)
	at org.glassfish.jersey.internal.Errors.process(Errors.java:244)
	at org.glassfish.jersey.process.internal.RequestScope.runInScope(RequestScope.java:265)
	at org.glassfish.jersey.server.ServerRuntime.process(ServerRuntime.java:234)
	at org.glassfish.jersey.server.ApplicationHandler.handle(ApplicationHandler.java:680)
	at org.glassfish.jersey.servlet.WebComponent.serviceImpl(WebComponent.java:394)
	at org.glassfish.jersey.servlet.WebComponent.service(WebComponent.java:346)
	at org.glassfish.jersey.servlet.ServletContainer.service(ServletContainer.java:366)
	at org.glassfish.jersey.servlet.ServletContainer.service(ServletContainer.java:319)
	at org.glassfish.jersey.servlet.ServletContainer.service(ServletContainer.java:205)
	at org.eclipse.jetty.servlet.ServletHolder.handle(ServletHolder.java:791)
	at org.eclipse.jetty.servlet.ServletHandler$ChainEnd.doFilter(ServletHandler.java:1626)
	at org.eclipse.jetty.websocket.server.WebSocketUpgradeFilter.doFilter(WebSocketUpgradeFilter.java:228)
	at org.eclipse.jetty.servlet.FilterHolder.doFilter(FilterHolder.java:193)
	at org.eclipse.jetty.servlet.ServletHandler$Chain.doFilter(ServletHandler.java:1601)
	at org.springframework.web.filter.RequestContextFilter.doFilterInternal(RequestContextFilter.java:100)
	at org.springframework.web.filter.OncePerRequestFilter.doFilter(OncePerRequestFilter.java:119)
	at org.eclipse.jetty.servlet.FilterHolder.doFilter(FilterHolder.java:193)
	at org.eclipse.jetty.servlet.ServletHandler$Chain.doFilter(ServletHandler.java:1601)
	at org.springframework.web.filter.CharacterEncodingFilter.doFilterInternal(CharacterEncodingFilter.java:201)
	at org.springframework.web.filter.OncePerRequestFilter.doFilter(OncePerRequestFilter.java:119)
	at org.eclipse.jetty.servlet.FilterHolder.doFilter(FilterHolder.java:193)
	at org.eclipse.jetty.servlet.ServletHandler$Chain.doFilter(ServletHandler.java:1601)
	at org.eclipse.jetty.servlet.ServletHandler.doHandle(ServletHandler.java:548)
	at org.eclipse.jetty.server.handler.ScopedHandler.handle(ScopedHandler.java:143)
	at org.eclipse.jetty.security.SecurityHandler.handle(SecurityHandler.java:602)
	at org.eclipse.jetty.server.handler.HandlerWrapper.handle(HandlerWrapper.java:127)
	at org.eclipse.jetty.server.handler.ScopedHandler.nextHandle(ScopedHandler.java:235)
	at org.eclipse.jetty.server.session.SessionHandler.doHandle(SessionHandler.java:1624)
	at org.eclipse.jetty.server.handler.ScopedHandler.nextHandle(ScopedHandler.java:233)
	at org.eclipse.jetty.server.handler.ContextHandler.doHandle(ContextHandler.java:1435)
	at org.eclipse.jetty.server.handler.ScopedHandler.nextScope(ScopedHandler.java:188)
	at org.eclipse.jetty.servlet.ServletHandler.doScope(ServletHandler.java:501)
	at org.eclipse.jetty.server.session.SessionHandler.doScope(SessionHandler.java:1594)
	at org.eclipse.jetty.server.handler.ScopedHandler.nextScope(ScopedHandler.java:186)
	at org.eclipse.jetty.server.handler.ContextHandler.doScope(ContextHandler.java:1350)
	at org.eclipse.jetty.server.handler.ScopedHandler.handle(ScopedHandler.java:141)
	at org.eclipse.jetty.server.handler.HandlerWrapper.handle(HandlerWrapper.java:127)
	at org.eclipse.jetty.server.Server.handle(Server.java:516)
	at org.eclipse.jetty.server.HttpChannel.lambda$handle$1(HttpChannel.java:388)
	at org.eclipse.jetty.server.HttpChannel.dispatch(HttpChannel.java:633)
	at org.eclipse.jetty.server.HttpChannel.handle(HttpChannel.java:380)
	at org.eclipse.jetty.server.HttpConnection.onFillable(HttpConnection.java:279)
	at org.eclipse.jetty.io.AbstractConnection$ReadCallback.succeeded(AbstractConnection.java:311)
	at org.eclipse.jetty.io.FillInterest.fillable(FillInterest.java:105)
	at org.eclipse.jetty.io.ChannelEndPoint$1.run(ChannelEndPoint.java:104)
	at org.eclipse.jetty.util.thread.strategy.EatWhatYouKill.runTask(EatWhatYouKill.java:336)
	at org.eclipse.jetty.util.thread.strategy.EatWhatYouKill.doProduce(EatWhatYouKill.java:313)
	at org.eclipse.jetty.util.thread.strategy.EatWhatYouKill.tryProduce(EatWhatYouKill.java:171)
	at org.eclipse.jetty.util.thread.strategy.EatWhatYouKill.produce(EatWhatYouKill.java:135)
	at org.eclipse.jetty.util.thread.QueuedThreadPool.runJob(QueuedThreadPool.java:882)
	at org.eclipse.jetty.util.thread.QueuedThreadPool$Runner.run(QueuedThreadPool.java:1036)
	at java.lang.Thread.run(Thread.java:748)
2021-12-26 15:57:18,997 INFO com.example.residencecms.config.filter.CustomLoggingResponseFilter:67 [qtp118881143-26] HTTP RESPONSE ==> RequestId: d1b5a6ec-2795-4d7d-83d2-9fff161364ae - Header: {Content-Type=[application/json; charset=utf-8], Access-Control-Allow-Credentials=[true], Access-Control-Allow-Methods=[GET, POST, PUT, DELETE, OPTIONS, HEAD], Access-Control-Allow-Headers=[*], Access-Control-Allow-Origin=[*]} - Entity: {"requestId":"d1b5a6ec-2795-4d7d-83d2-9fff161364ae","at":"26/12/2021 15:57:18","error":{"code":403,"message":"User not authorized."}} - In: 19 ms
2021-12-26 15:57:21,923 INFO com.example.residencecms.config.filter.CustomLoggingRequestFilter:64 [qtp118881143-30] HTTP REQUEST ==> RequestId: 67e039e0-f42c-40e8-80a1-7dfb5052201f - Remote IP: [0:0:0:0:0:0:0:1] - Path: account/add - Header: {Authorization=[Bearer eyJ0eXAiOiJKV1QiLCJhbGciOiJIUzUxMiJ9.eyJ1c2VyX2RhdGEiOiJ7XCJpZFwiOjIsXCJ1c2VyTmFtZVwiOlwiYWRtaW5cIixcInJvbGVzXCI6W1wiQURNSU5cIl19IiwiZXhwIjoxNjQwNTEyNjA4fQ.Ec-m2GRh76WOwXtge-wyoigF_xEujRQ8cuoEVCgIxq-Rg2gBs2yoDkUXkpX0UUvgJxmvOboRkLyoetCmGQJkEw], Accept=[*/*], User-Agent=[PostmanRuntime/7.28.4], Connection=[keep-alive], Postman-Token=[15c6e6fa-3afa-4958-83e6-04290c331b56], Host=[localhost:10901], Accept-Encoding=[gzip, deflate, br], Content-Length=[55], Content-Type=[application/json]} - QueryString: null - Entity: {
    "username":"dung",
    "password":"123@123a"
}

2021-12-26 15:57:21,930 ERROR com.example.residencecms.exception.mapper.GenericExceptionMapper:25 [qtp118881143-30] requestId: 67e039e0-f42c-40e8-80a1-7dfb5052201f, [GENERIC EXCEPTION] ==> User not authorized.
javax.ws.rs.ForbiddenException: User not authorized.
	at org.glassfish.jersey.server.filter.RolesAllowedDynamicFeature$RolesAllowedRequestFilter.filter(RolesAllowedDynamicFeature.java:115)
	at org.glassfish.jersey.server.ContainerFilteringStage.apply(ContainerFilteringStage.java:108)
	at org.glassfish.jersey.server.ContainerFilteringStage.apply(ContainerFilteringStage.java:44)
	at org.glassfish.jersey.process.internal.Stages.process(Stages.java:173)
	at org.glassfish.jersey.server.ServerRuntime$1.run(ServerRuntime.java:247)
	at org.glassfish.jersey.internal.Errors$1.call(Errors.java:248)
	at org.glassfish.jersey.internal.Errors$1.call(Errors.java:244)
	at org.glassfish.jersey.internal.Errors.process(Errors.java:292)
	at org.glassfish.jersey.internal.Errors.process(Errors.java:274)
	at org.glassfish.jersey.internal.Errors.process(Errors.java:244)
	at org.glassfish.jersey.process.internal.RequestScope.runInScope(RequestScope.java:265)
	at org.glassfish.jersey.server.ServerRuntime.process(ServerRuntime.java:234)
	at org.glassfish.jersey.server.ApplicationHandler.handle(ApplicationHandler.java:680)
	at org.glassfish.jersey.servlet.WebComponent.serviceImpl(WebComponent.java:394)
	at org.glassfish.jersey.servlet.WebComponent.service(WebComponent.java:346)
	at org.glassfish.jersey.servlet.ServletContainer.service(ServletContainer.java:366)
	at org.glassfish.jersey.servlet.ServletContainer.service(ServletContainer.java:319)
	at org.glassfish.jersey.servlet.ServletContainer.service(ServletContainer.java:205)
	at org.eclipse.jetty.servlet.ServletHolder.handle(ServletHolder.java:791)
	at org.eclipse.jetty.servlet.ServletHandler$ChainEnd.doFilter(ServletHandler.java:1626)
	at org.eclipse.jetty.websocket.server.WebSocketUpgradeFilter.doFilter(WebSocketUpgradeFilter.java:228)
	at org.eclipse.jetty.servlet.FilterHolder.doFilter(FilterHolder.java:193)
	at org.eclipse.jetty.servlet.ServletHandler$Chain.doFilter(ServletHandler.java:1601)
	at org.springframework.web.filter.RequestContextFilter.doFilterInternal(RequestContextFilter.java:100)
	at org.springframework.web.filter.OncePerRequestFilter.doFilter(OncePerRequestFilter.java:119)
	at org.eclipse.jetty.servlet.FilterHolder.doFilter(FilterHolder.java:193)
	at org.eclipse.jetty.servlet.ServletHandler$Chain.doFilter(ServletHandler.java:1601)
	at org.springframework.web.filter.CharacterEncodingFilter.doFilterInternal(CharacterEncodingFilter.java:201)
	at org.springframework.web.filter.OncePerRequestFilter.doFilter(OncePerRequestFilter.java:119)
	at org.eclipse.jetty.servlet.FilterHolder.doFilter(FilterHolder.java:193)
	at org.eclipse.jetty.servlet.ServletHandler$Chain.doFilter(ServletHandler.java:1601)
	at org.eclipse.jetty.servlet.ServletHandler.doHandle(ServletHandler.java:548)
	at org.eclipse.jetty.server.handler.ScopedHandler.handle(ScopedHandler.java:143)
	at org.eclipse.jetty.security.SecurityHandler.handle(SecurityHandler.java:602)
	at org.eclipse.jetty.server.handler.HandlerWrapper.handle(HandlerWrapper.java:127)
	at org.eclipse.jetty.server.handler.ScopedHandler.nextHandle(ScopedHandler.java:235)
	at org.eclipse.jetty.server.session.SessionHandler.doHandle(SessionHandler.java:1624)
	at org.eclipse.jetty.server.handler.ScopedHandler.nextHandle(ScopedHandler.java:233)
	at org.eclipse.jetty.server.handler.ContextHandler.doHandle(ContextHandler.java:1435)
	at org.eclipse.jetty.server.handler.ScopedHandler.nextScope(ScopedHandler.java:188)
	at org.eclipse.jetty.servlet.ServletHandler.doScope(ServletHandler.java:501)
	at org.eclipse.jetty.server.session.SessionHandler.doScope(SessionHandler.java:1594)
	at org.eclipse.jetty.server.handler.ScopedHandler.nextScope(ScopedHandler.java:186)
	at org.eclipse.jetty.server.handler.ContextHandler.doScope(ContextHandler.java:1350)
	at org.eclipse.jetty.server.handler.ScopedHandler.handle(ScopedHandler.java:141)
	at org.eclipse.jetty.server.handler.HandlerWrapper.handle(HandlerWrapper.java:127)
	at org.eclipse.jetty.server.Server.handle(Server.java:516)
	at org.eclipse.jetty.server.HttpChannel.lambda$handle$1(HttpChannel.java:388)
	at org.eclipse.jetty.server.HttpChannel.dispatch(HttpChannel.java:633)
	at org.eclipse.jetty.server.HttpChannel.handle(HttpChannel.java:380)
	at org.eclipse.jetty.server.HttpConnection.onFillable(HttpConnection.java:279)
	at org.eclipse.jetty.io.AbstractConnection$ReadCallback.succeeded(AbstractConnection.java:311)
	at org.eclipse.jetty.io.FillInterest.fillable(FillInterest.java:105)
	at org.eclipse.jetty.io.ChannelEndPoint$1.run(ChannelEndPoint.java:104)
	at org.eclipse.jetty.util.thread.strategy.EatWhatYouKill.runTask(EatWhatYouKill.java:336)
	at org.eclipse.jetty.util.thread.strategy.EatWhatYouKill.doProduce(EatWhatYouKill.java:313)
	at org.eclipse.jetty.util.thread.strategy.EatWhatYouKill.tryProduce(EatWhatYouKill.java:171)
	at org.eclipse.jetty.util.thread.strategy.EatWhatYouKill.run(EatWhatYouKill.java:129)
	at org.eclipse.jetty.util.thread.ReservedThreadExecutor$ReservedThread.run(ReservedThreadExecutor.java:383)
	at org.eclipse.jetty.util.thread.QueuedThreadPool.runJob(QueuedThreadPool.java:882)
	at org.eclipse.jetty.util.thread.QueuedThreadPool$Runner.run(QueuedThreadPool.java:1036)
	at java.lang.Thread.run(Thread.java:748)
2021-12-26 15:57:21,933 INFO com.example.residencecms.config.filter.CustomLoggingResponseFilter:67 [qtp118881143-30] HTTP RESPONSE ==> RequestId: 67e039e0-f42c-40e8-80a1-7dfb5052201f - Header: {Content-Type=[application/json; charset=utf-8], Access-Control-Allow-Credentials=[true], Access-Control-Allow-Methods=[GET, POST, PUT, DELETE, OPTIONS, HEAD], Access-Control-Allow-Headers=[*], Access-Control-Allow-Origin=[*]} - Entity: {"requestId":"67e039e0-f42c-40e8-80a1-7dfb5052201f","at":"26/12/2021 15:57:21","error":{"code":403,"message":"User not authorized."}} - In: 10 ms
